<svg width="16" height="17" viewBox="0 0 16 17" fill="none" xmlns="http://www.w3.org/2000/svg">
<path d="M8 0.486816L6.59 1.89682L12.17 7.48682H0V9.48682H12.17L6.59 15.0768L8 16.4868L16 8.48682L8 0.486816Z" fill="white"/>
</svg>
