<svg width="290" height="264" viewBox="0 0 290 264" fill="none" xmlns="http://www.w3.org/2000/svg">
<g clip-path="url(#clip0)">
<path d="M198.045 132.097L198.32 169.181L190.145 192.961L271.418 207.117L272.914 179.235C279.763 175.181 283.871 167.592 285.173 159.201C287.162 146.415 287.906 125.571 289.685 110.847C290.938 100.478 288.658 87.0189 279.464 82.1544L272.348 79.3491H272.243L249.974 70.5524L218.438 76.3493L205.767 81.2139C200.46 83.2322 195.727 86.5223 191.98 90.7971L153.83 134.53L170.867 162.622L198.045 132.097Z" fill="url(#paint0_linear)"/>
<path d="M277.911 174.954C279.304 173.543 280.566 172.007 281.679 170.365C282.843 168.581 283.683 166.605 284.162 164.528C285.167 160.565 285.897 156.536 286.345 152.472C286.806 148.742 287.097 145.361 287.307 142.532C287.518 139.702 287.623 137.392 287.687 135.803V133.978C287.728 133.753 287.728 133.522 287.687 133.297C287.631 133.504 287.598 133.716 287.59 133.93C287.59 134.416 287.493 135.024 287.429 135.754C287.283 137.432 287.089 139.694 286.846 142.451C286.604 145.207 286.232 148.637 285.779 152.366C285.3 156.397 284.56 160.391 283.564 164.325C283.089 166.343 282.268 168.264 281.138 170C280.053 171.612 278.827 173.123 277.475 174.516C275.179 176.889 272.527 178.886 269.615 180.435C264.585 183.054 260.939 183.086 260.987 183.264C261.199 183.297 261.414 183.297 261.626 183.264C262.237 183.223 262.844 183.145 263.445 183.029C265.664 182.615 267.812 181.886 269.825 180.865" fill="#263238"/>
<path d="M266.688 166.328C266.557 165.408 266.252 164.522 265.79 163.717C264.79 161.699 263.395 159.903 261.69 158.435C259.984 156.967 258.002 155.857 255.86 155.172C254.992 154.838 254.066 154.678 253.135 154.701C253.135 154.807 254.146 155.018 255.707 155.617C259.797 157.188 263.223 160.123 265.41 163.928C265.791 164.751 266.218 165.552 266.688 166.328Z" fill="#263238"/>
<g opacity="0.3">
<path opacity="0.3" d="M214.621 171.419C219.877 168.444 225.012 166.157 230.502 163.652C235.993 161.147 241.37 157.936 244.968 153.112C251.745 143.959 250.976 130.735 257.906 121.695C257.443 127.776 256.987 133.854 256.54 139.929C256.127 145.499 256.976 151.012 253.402 154.799C250.386 157.985 244.508 160.474 240.343 161.804C231.982 164.576 222.974 168.679 214.613 171.452" fill="black"/>
</g>
<path d="M129.329 240.804C129.329 240.804 88.2355 252.211 86.5859 252.787C84.1116 253.663 84.5239 262.759 88.3729 262.614C90.2004 262.549 119.909 263.724 123.701 263.489C127.494 263.254 138.79 258.779 138.79 258.779L129.329 240.804Z" fill="url(#paint1_linear)"/>
<path d="M172.946 229.429C172.946 229.429 211.832 254.96 213.222 256.03C215.317 257.652 212.915 265.168 209.284 263.862C207.57 263.246 174.943 254.133 171.433 252.771C167.924 251.409 158.496 243.682 158.496 243.682L172.946 229.429Z" fill="url(#paint2_linear)"/>
<path d="M177.498 244.209C177.32 244.209 177.498 241.98 179.196 239.92C180.894 237.861 182.997 237.188 183.029 237.367C183.061 237.545 181.258 238.429 179.73 240.35C178.201 242.272 177.7 244.258 177.498 244.209Z" fill="#263238"/>
<path d="M179.803 239.361C179.706 239.312 180.231 238.258 180.684 236.442C180.943 235.379 181.097 234.293 181.145 233.199C181.169 232.558 181.153 231.917 181.096 231.278C181.096 230.994 181.023 230.715 180.886 230.467C180.83 230.382 180.743 230.322 180.644 230.299C180.544 230.276 180.44 230.293 180.352 230.345C179.916 230.524 179.681 231.278 179.471 231.878C179.284 232.48 179.157 233.099 179.091 233.726C178.994 234.807 179.026 235.896 179.188 236.969C179.463 238.818 179.827 239.945 179.714 239.977C179.204 239.071 178.865 238.079 178.711 237.05C178.474 235.94 178.39 234.803 178.46 233.669C178.503 232.989 178.628 232.317 178.832 231.667C178.935 231.318 179.062 230.976 179.212 230.645C179.376 230.234 179.688 229.898 180.086 229.705C180.323 229.592 180.594 229.568 180.847 229.638C181.101 229.708 181.321 229.867 181.468 230.086C181.677 230.436 181.786 230.837 181.784 231.245C181.832 231.915 181.832 232.587 181.784 233.256C181.71 234.385 181.501 235.501 181.161 236.58C180.91 237.593 180.447 238.541 179.803 239.361Z" fill="#263238"/>
<path d="M179.851 238.948C179.803 239.045 178.889 238.583 177.32 238.202C176.409 237.974 175.477 237.846 174.538 237.821C173.998 237.78 173.454 237.813 172.921 237.918C172.689 237.947 172.472 238.051 172.304 238.215C172.136 238.379 172.027 238.594 171.991 238.826C171.983 239.073 172.04 239.318 172.157 239.536C172.273 239.753 172.445 239.937 172.654 240.066C173.09 240.339 173.583 240.506 174.094 240.553C175.014 240.632 175.941 240.538 176.827 240.277C177.655 239.968 178.503 239.717 179.366 239.523C177.81 240.635 175.939 241.217 174.029 241.185C173.408 241.143 172.806 240.951 172.274 240.626C171.964 240.43 171.711 240.155 171.542 239.829C171.373 239.502 171.293 239.136 171.312 238.769C171.359 238.393 171.526 238.043 171.788 237.771C172.051 237.499 172.395 237.32 172.768 237.261C173.356 237.149 173.958 237.122 174.555 237.18C175.536 237.246 176.505 237.431 177.441 237.731C178.331 237.936 179.157 238.353 179.851 238.948Z" fill="#263238"/>
<path d="M92.133 167.171C92.133 167.171 80.4729 171.346 80.4244 184.464C80.3274 209.598 131.043 237.277 131.043 237.277L198.538 192.434L202.767 190.723C202.767 190.723 111.661 156.42 92.133 167.171Z" fill="url(#paint3_linear)"/>
<path d="M164.35 215.087C163.733 214.736 163.146 214.334 162.595 213.887C161.487 213.076 159.911 211.892 157.978 210.392C154.113 207.401 148.857 203.152 143.197 198.288C137.536 193.423 132.564 188.851 129.022 185.47C127.259 183.783 125.844 182.397 124.882 181.416C124.356 180.936 123.872 180.413 123.434 179.851C124.01 180.263 124.55 180.721 125.052 181.221L129.337 185.105C132.96 188.348 137.981 192.888 143.633 197.753C149.286 202.617 154.477 206.914 158.261 210.003L162.741 213.668C163.32 214.09 163.858 214.565 164.35 215.087Z" fill="#263238"/>
<path d="M111.192 176.576C111.192 176.405 114.176 176.113 117.661 177.167C121.146 178.221 123.556 180.086 123.442 180.216C123.329 180.346 120.871 178.821 117.467 177.832C114.063 176.843 111.184 176.77 111.192 176.576Z" fill="#263238"/>
<path d="M117.006 172.635C117.062 172.473 119.23 173.446 121 175.651C122.771 177.857 123.273 180.184 123.103 180.208C122.933 180.232 122.173 178.173 120.467 176.081C118.761 173.989 116.893 172.781 117.006 172.635Z" fill="#263238"/>
<path d="M107.658 126.13L131.698 187.237L235.209 188.915L237.117 183.305L200.843 181.992L183.409 127.792L107.658 126.13Z" fill="#455A64"/>
<path d="M155.997 152.577C154.671 151.677 152.213 152.042 151.016 153.112C150.433 153.669 150.029 154.388 149.856 155.177C149.683 155.966 149.749 156.788 150.046 157.539C150.368 158.278 150.887 158.913 151.547 159.375C152.206 159.837 152.979 160.108 153.781 160.158C154.635 160.211 155.482 159.984 156.195 159.511C156.909 159.039 157.449 158.347 157.736 157.539C158.213 155.917 157.687 153.445 155.997 152.577Z" fill="#EBEBEB"/>
<path d="M124.679 240.804C124.679 240.804 220.015 177.613 223.92 176.276C227.826 174.938 237.262 168.768 246.699 171.411C256.135 174.054 264.593 182.502 268.798 194.907C271.224 201.985 272.356 214.073 272.898 223.138C273.633 233.984 270.133 244.692 263.138 252.998C259.903 256.736 255.949 259.995 251.243 261.462C250.249 261.77 249.222 262.038 248.162 262.273C230.13 266.197 211.605 258.082 201.473 242.62L199.25 239.223C199.25 239.223 136.865 262.2 135.895 261.876C135.895 261.876 132.361 259.508 128.617 252.666C124.679 245.49 124.679 240.804 124.679 240.804Z" fill="url(#paint4_linear)"/>
<path d="M135.766 261.633C150.943 256.492 165.215 251.32 178.048 246.682L211.904 234.334L234.44 226.032L240.497 223.794L242.114 223.235C242.446 223.113 242.632 223.065 242.632 223.065C242.632 223.065 242.462 223.154 242.106 223.3L240.545 223.916L234.505 226.251L212.034 234.74C202.492 238.307 191.058 242.555 178.234 247.225C165.409 251.895 151.194 257.036 136.008 262.184L135.766 261.633Z" fill="#263238"/>
<path d="M244.909 46.2741L249.812 71.8223C250.047 73.785 249.943 75.7816 249.505 77.698C249.068 79.6145 248.305 81.4132 247.262 82.9916C246.218 84.57 244.914 85.8971 243.423 86.8971C241.933 87.8971 240.285 88.5505 238.575 88.8199L237.943 88.8996C234.579 89.2359 231.232 88.0747 228.594 85.6566C225.957 83.2384 224.231 79.7486 223.775 75.9103C223.33 72.1331 222.948 68.9854 222.879 68.5949C222.879 68.5949 222.476 62.0046 221.316 53.4541C233.935 43.477 244.909 46.2741 244.909 46.2741Z" fill="url(#paint5_linear)"/>
<path d="M53.2793 229.591C53.2234 229.406 53.1503 229.227 53.061 229.056C52.8831 228.675 52.6486 228.172 52.3413 227.532C51.4751 225.553 50.7746 223.506 50.247 221.411C48.8562 215.971 48.371 207.628 50.4249 197.785C51.5357 192.407 52.9942 187.107 54.7914 181.919C56.6431 176.243 58.8344 170.308 60.5487 163.847C62.2629 157.385 63.6538 150.412 63.3869 143.075C63.1201 135.738 60.9611 128.392 58.5353 121.095C56.1094 113.798 53.6836 106.631 52.9478 99.4479C52.1429 92.5253 53.541 85.5247 56.9423 79.4465C60.104 73.6171 64.0742 68.6309 67.0499 63.4583C69.8308 58.6567 71.8778 53.4641 73.1226 48.0538C74.9177 40.2288 75.0472 32.1122 73.5026 24.2336C72.9547 21.3566 72.1259 18.5405 71.0283 15.826C71.0519 16.0182 71.1009 16.2063 71.1738 16.3855C71.2951 16.7827 71.4649 17.3179 71.6752 18.007C72.2982 20.0787 72.8137 22.1814 73.2196 24.3066C74.6355 32.1463 74.4236 40.1946 72.597 47.9484C71.3446 53.3001 69.3033 58.4346 66.5405 63.1826C63.5729 68.2904 59.5784 73.2604 56.3601 79.1627C52.8727 85.3524 51.4317 92.4911 52.2443 99.5533C52.9882 106.85 55.4787 114.058 57.8479 121.363C60.2172 128.668 62.3761 135.957 62.643 143.14C62.9098 150.323 61.5837 157.288 59.8695 163.701C58.1552 170.114 56.0205 176.105 54.2092 181.748C52.4282 186.969 50.9939 192.302 49.9155 197.712C47.9101 207.66 48.4842 216.06 49.9721 221.516C50.5302 223.617 51.2827 225.661 52.22 227.621L53.0286 229.129C53.104 229.288 53.1876 229.442 53.2793 229.591Z" fill="#263238"/>
<path d="M63.0068 68.558C63.0068 68.558 69.0714 49.197 58.2118 37.8626C58.0861 37.7373 57.916 37.667 57.7387 37.667C57.5615 37.667 57.3915 37.7373 57.2657 37.8626C57.1606 37.9589 57.0896 38.087 57.0636 38.2274C56.4895 41.3894 55.7698 51.1266 63.0068 68.558Z" fill="#0C6DAD"/>
<path d="M59.3682 44.3162C59.3856 45.5157 59.521 46.7106 59.7725 47.8835C60.1687 50.3158 60.6377 53.2345 61.1472 56.4208C61.6566 59.6071 62.1094 62.5015 62.5056 64.9581C62.6094 66.1537 62.8232 67.337 63.1444 68.4931C63.2524 67.293 63.2144 66.0842 63.0312 64.8933C62.8371 62.688 62.449 59.6395 61.8992 56.2992C61.3493 52.9589 60.7752 49.951 60.2819 47.7862C60.1121 46.598 59.8055 45.4336 59.3682 44.3162Z" fill="#263238"/>
<path d="M55.9154 114.26C55.9154 114.26 52.22 94.3158 37.3659 89.3782C37.2825 89.3491 37.1943 89.3369 37.1062 89.3423C37.0181 89.3478 36.932 89.3709 36.8529 89.4101C36.7739 89.4494 36.7034 89.5041 36.6457 89.571C36.588 89.6379 36.5441 89.7157 36.5168 89.7998C36.4765 89.9264 36.4765 90.0624 36.5168 90.189C37.479 93.2618 41.3847 102.213 55.9154 114.26Z" fill="#0C6DAD"/>
<path d="M41.4089 94.4861C41.9905 95.5372 42.6701 96.5308 43.4385 97.4535L48.6379 104.353L53.813 111.269C54.4615 112.277 55.2033 113.222 56.0286 114.09C55.5587 112.981 54.9617 111.931 54.2496 110.961C53.0448 109.096 51.282 106.591 49.2362 103.891C47.1905 101.191 45.2821 98.8074 43.8509 97.1211C43.1358 96.1555 42.3169 95.2719 41.4089 94.4861Z" fill="#263238"/>
<path d="M59.9342 164.252C59.9342 164.252 62.174 144.088 49.3818 135.065C49.2812 134.993 49.1629 134.951 49.0399 134.942C48.9169 134.934 48.7939 134.959 48.6844 135.016C48.575 135.073 48.4833 135.159 48.4195 135.265C48.3556 135.371 48.3221 135.492 48.3225 135.616C48.3629 138.835 49.5031 148.531 59.9342 164.252Z" fill="#0C6DAD"/>
<path d="M51.7672 141.145C52.0114 142.321 52.3716 143.47 52.8427 144.575L55.8264 152.683C56.9262 155.715 57.9207 158.463 58.7779 160.79C59.1081 161.943 59.5411 163.064 60.0717 164.139C59.9446 162.937 59.6731 161.756 59.263 160.62C58.6404 158.488 57.6458 155.577 56.5057 152.407C55.3655 149.237 54.193 146.391 53.3197 144.348C52.9242 143.225 52.4034 142.151 51.7672 141.145Z" fill="#263238"/>
<path d="M48.735 214.576C48.735 214.576 50.2552 194.307 37.1557 185.762C37.0077 185.663 36.8266 185.627 36.6523 185.662C36.4779 185.697 36.3246 185.8 36.2258 185.948C36.1448 186.064 36.1049 186.204 36.1126 186.345C36.2662 189.588 37.7541 199.277 48.735 214.576Z" fill="#0C6DAD"/>
<path d="M39.7513 191.777C40.035 192.946 40.4388 194.081 40.9561 195.166C41.8941 197.469 43.0019 200.177 44.1906 203.169L47.425 211.179C48.2336 213.238 48.7349 214.511 48.8481 214.479C48.6794 213.287 48.37 212.119 47.9263 211C47.239 208.893 46.1716 206.014 44.886 202.893C43.6003 199.771 42.3631 196.958 41.4089 194.956C40.9783 193.837 40.4222 192.77 39.7513 191.777Z" fill="#263238"/>
<path d="M71.6833 51.5482C71.6833 51.5482 89.6183 42.1596 89.9741 26.4632C89.9752 26.3724 89.9581 26.2823 89.924 26.1982C89.8898 26.1141 89.8392 26.0377 89.7752 25.9735C89.7111 25.9093 89.6349 25.8586 89.5511 25.8243C89.4672 25.7901 89.3773 25.773 89.2867 25.7741C89.1429 25.7732 89.0021 25.8156 88.8824 25.8957C86.2625 27.728 78.8719 34.1006 71.6833 51.5482Z" fill="#0C6DAD"/>
<path d="M86.2463 31.8547C85.4062 32.7204 84.6583 33.6714 84.0146 34.6924L78.9608 41.6974L73.8827 48.6942C72.5727 50.4698 71.756 51.5643 71.845 51.6373C72.7534 50.863 73.5677 49.984 74.2708 49.0185C75.694 47.3159 77.57 44.8918 79.5349 42.1433C81.4998 39.3948 83.2221 36.8571 84.3865 34.9924C85.1227 34.0203 85.7466 32.9677 86.2463 31.8547Z" fill="#263238"/>
<path d="M52.4302 93.1241C52.4302 93.1241 70.8989 84.8462 72.2007 69.1985C72.2096 69.1105 72.2009 69.0216 72.1751 68.937C72.1493 68.8524 72.1069 68.7738 72.0504 68.7059C71.9939 68.6379 71.9245 68.582 71.8462 68.5413C71.7678 68.5006 71.6822 68.4759 71.5943 68.4688C71.4534 68.4533 71.3114 68.4847 71.19 68.558C68.4164 70.2363 60.6619 76.1548 52.4302 93.1241Z" fill="#0C6DAD"/>
<path d="M68.1577 74.3549C67.2604 75.1586 66.4475 76.0524 65.7319 77.0223L60.2576 83.711L54.7752 90.3836C53.95 91.2523 53.2082 92.1969 52.5596 93.2051C53.5208 92.4979 54.3972 91.6817 55.1714 90.7728C56.6916 89.1513 58.7131 86.8487 60.8317 84.2299C62.9503 81.6112 64.8343 79.1789 66.1362 77.3871C66.9216 76.4558 67.5998 75.4386 68.1577 74.3549Z" fill="#263238"/>
<path d="M63.0554 139.5C63.0554 139.5 75.7344 123.698 69.7911 109.177C69.7582 109.095 69.7095 109.02 69.6478 108.957C69.5861 108.894 69.5126 108.844 69.4315 108.809C69.3504 108.775 69.2633 108.756 69.1752 108.755C69.087 108.755 68.9996 108.771 68.9178 108.804C68.7866 108.853 68.6756 108.944 68.6025 109.064C66.8963 111.828 62.6754 120.633 63.0554 139.5Z" fill="#0C6DAD"/>
<path d="M68.5297 115.606C68.1066 116.732 67.7978 117.897 67.6079 119.085C67.0823 121.517 66.4596 124.379 65.7723 127.533C65.085 130.687 64.4543 133.549 63.9206 135.981C63.5804 137.13 63.3476 138.308 63.2252 139.5C63.7687 138.425 64.1762 137.287 64.4381 136.111C65.0607 133.978 65.8047 131.003 66.5162 127.695C67.2278 124.387 67.7857 121.379 68.1334 119.182C68.3982 118.009 68.5311 116.809 68.5297 115.606Z" fill="#263238"/>
<path d="M50.4734 194.08C50.4734 194.08 68.7965 185.486 69.8801 169.822C69.8867 169.734 69.8758 169.645 69.8481 169.561C69.8203 169.476 69.7762 169.398 69.7184 169.331C69.6605 169.264 69.59 169.209 69.5109 169.17C69.4318 169.13 69.3457 169.107 69.2575 169.1C69.1186 169.092 68.9804 169.126 68.8612 169.198C66.0958 170.9 58.4382 176.965 50.4734 194.08Z" fill="#0C6DAD"/>
<path d="M65.9098 175.068C65.036 175.893 64.2452 176.803 63.5487 177.784C62.0042 179.738 60.1929 182.024 58.1956 184.562C56.1984 187.099 54.3628 189.369 52.8184 191.323C52.0099 192.206 51.2845 193.161 50.6513 194.177C51.603 193.446 52.466 192.605 53.2227 191.672C54.7186 190.05 56.6997 187.691 58.7859 185.032C60.8722 182.373 62.6996 179.916 63.9772 178.1C64.73 177.163 65.3781 176.146 65.9098 175.068Z" fill="#263238"/>
<path d="M13.989 114.325C13.9648 114.473 13.9648 114.624 13.989 114.771V116.069C14.0456 117.293 14.1184 118.939 14.2074 120.99C14.4499 125.311 14.7734 131.343 15.1696 138.551C16.4715 145.896 20.2073 154.028 25.2126 161.925C28.8836 167.746 32.7326 173.033 36.056 177.954C39.0717 182.257 41.7896 186.761 44.1906 191.437C45.7581 194.607 47.0303 197.915 47.9911 201.32C48.3145 202.536 48.5571 203.477 48.6946 204.125C48.7512 204.46 48.8406 204.789 48.9614 205.106C48.9562 204.766 48.9182 204.426 48.8482 204.093C48.7512 203.436 48.5571 202.471 48.2741 201.247C47.421 197.811 46.2179 194.472 44.6839 191.283C42.3466 186.545 39.6628 181.987 36.6544 177.646C33.3553 172.692 29.5224 167.398 25.8675 161.609C20.8865 153.745 17.175 145.734 15.8165 138.51C15.3152 131.311 14.8866 125.287 14.5874 120.966C14.4257 118.914 14.2882 117.277 14.1912 116.101C14.1427 115.582 14.0942 115.161 14.0618 114.804C14.0295 114.447 14.0133 114.325 13.989 114.325Z" fill="#263238"/>
<path d="M24.9052 160.474C24.9052 160.474 17.1425 141.745 26.9024 129.47C26.9797 129.374 27.0818 129.3 27.1979 129.257C27.314 129.214 27.4395 129.203 27.5611 129.227C27.6826 129.25 27.7954 129.306 27.8874 129.389C27.9794 129.472 28.047 129.579 28.083 129.697C28.9401 132.795 30.5412 142.443 24.9052 160.474Z" fill="#0C6DAD"/>
<path d="M26.3203 135.989C25.9786 137.142 25.7724 138.331 25.7058 139.532C25.4308 141.729 25.1236 144.778 24.8972 148.158C24.6707 151.539 24.5414 154.596 24.5414 156.817C24.4684 158.019 24.5417 159.225 24.7597 160.409C24.978 159.23 25.0836 158.033 25.0751 156.834C25.2449 154.353 25.4389 151.434 25.6492 148.207C25.8594 144.98 26.0777 142.07 26.2556 139.581C26.3944 138.388 26.4161 137.185 26.3203 135.989Z" fill="#263238"/>
<g opacity="0.3">
<path opacity="0.3" d="M24.9052 160.474C24.9052 160.474 17.1425 141.745 26.9024 129.47C26.9797 129.374 27.0818 129.3 27.1979 129.257C27.314 129.214 27.4395 129.203 27.5611 129.227C27.6826 129.25 27.7954 129.306 27.8874 129.389C27.9794 129.472 28.047 129.579 28.083 129.697C28.9401 132.795 30.5412 142.443 24.9052 160.474Z" fill="black"/>
</g>
<path d="M48.9452 205.601C48.9452 205.601 42.727 186.297 53.4492 174.857C53.5109 174.794 53.5845 174.744 53.6657 174.71C53.7469 174.676 53.8341 174.658 53.9222 174.658C54.0103 174.658 54.0975 174.676 54.1787 174.71C54.2599 174.744 54.3335 174.794 54.3952 174.857C54.4998 174.95 54.5708 175.076 54.5974 175.214C55.2038 178.376 56.0205 188.105 48.9452 205.601Z" fill="#0C6DAD"/>
<path d="M52.3333 181.319C51.9022 182.442 51.601 183.612 51.4357 184.805C50.9829 186.978 50.4249 189.986 49.9155 193.334C49.4061 196.683 49.0422 199.723 48.8562 201.944C48.6945 203.135 48.6701 204.34 48.7835 205.536C49.0978 204.38 49.3009 203.196 49.3899 202.001C49.7619 199.569 50.1985 196.642 50.6595 193.448C51.1204 190.253 51.5893 187.359 51.9613 184.894C52.2062 183.718 52.3308 182.52 52.3333 181.319Z" fill="#263238"/>
<g opacity="0.3">
<path opacity="0.3" d="M48.9452 205.601C48.9452 205.601 42.727 186.297 53.4492 174.857C53.5109 174.794 53.5845 174.744 53.6657 174.71C53.7469 174.676 53.8341 174.658 53.9222 174.658C54.0103 174.658 54.0975 174.676 54.1787 174.71C54.2599 174.744 54.3335 174.794 54.3952 174.857C54.4998 174.95 54.5708 175.076 54.5974 175.214C55.2038 178.376 56.0205 188.105 48.9452 205.601Z" fill="black"/>
</g>
<path d="M15.0159 137.57C15.0159 137.57 -1.55256 125.936 0.121263 110.328C0.137677 110.151 0.223463 109.988 0.359862 109.874C0.496262 109.76 0.672154 109.705 0.849008 109.72C0.989017 109.735 1.12141 109.792 1.22906 109.882C3.63872 112.063 10.1399 119.328 15.0159 137.57Z" fill="#0C6DAD"/>
<g opacity="0.3">
<path opacity="0.3" d="M15.0159 137.57C15.0159 137.57 -1.55256 125.936 0.121263 110.328C0.137677 110.151 0.223463 109.988 0.359862 109.874C0.496262 109.76 0.672154 109.705 0.849008 109.72C0.989017 109.735 1.12141 109.792 1.22906 109.882C3.63872 112.063 10.1399 119.328 15.0159 137.57Z" fill="black"/>
</g>
<path d="M3.12131 116.15C3.45251 117.306 3.91369 118.422 4.49595 119.474C5.44203 121.476 6.80856 124.217 8.41769 127.2C10.0268 130.184 11.5632 132.827 12.7519 134.7C13.3328 135.752 14.0388 136.729 14.8542 137.611C14.4163 136.5 13.8748 135.433 13.237 134.424L9.10502 126.835L4.99729 119.231C4.47105 118.146 3.84287 117.115 3.12131 116.15Z" fill="#263238"/>
<path d="M42.2579 186.467C42.2579 186.467 22.2691 183.337 16.916 168.582C16.885 168.499 16.8706 168.41 16.8738 168.322C16.8769 168.233 16.8975 168.146 16.9343 168.065C16.9711 167.985 17.0235 167.912 17.0883 167.852C17.1532 167.792 17.2293 167.745 17.3123 167.714C17.4461 167.67 17.5908 167.67 17.7247 167.714C20.8378 168.582 29.87 172.246 42.2579 186.467Z" fill="#0C6DAD"/>
<g opacity="0.3">
<path opacity="0.3" d="M42.2579 186.467C42.2579 186.467 22.2691 183.337 16.916 168.582C16.885 168.499 16.8706 168.41 16.8738 168.322C16.8769 168.233 16.8975 168.146 16.9343 168.065C16.9711 167.985 17.0235 167.912 17.0883 167.852C17.1532 167.792 17.2293 167.745 17.3123 167.714C17.4461 167.67 17.5908 167.67 17.7247 167.714C20.8378 168.582 29.87 172.246 42.2579 186.467Z" fill="black"/>
</g>
<path d="M22.1721 172.522C22.9798 173.411 23.8828 174.207 24.8648 174.897C26.5952 176.276 29.0291 178.14 31.7784 180.094C34.5277 182.048 37.0748 183.759 38.967 184.918C39.9556 185.6 41.0192 186.166 42.1367 186.605C41.2462 185.802 40.2824 185.086 39.2581 184.464L32.2151 179.478L25.1882 174.468C24.2503 173.72 23.2399 173.068 22.1721 172.522Z" fill="#263238"/>
<path d="M61.3331 223.357L67.1632 262.695H30.8243L35.5385 223.357H61.3331Z" fill="#455A64"/>
<path d="M34.083 235.542C34.083 235.753 40.6408 235.923 48.735 235.923C56.8292 235.923 63.4113 235.761 63.4113 235.542C63.4113 235.323 56.8534 235.161 48.7592 235.161C40.665 235.161 34.083 235.332 34.083 235.542Z" fill="#263238"/>
<path d="M33.3633 238.672C33.3633 238.883 40.1394 239.053 48.4923 239.053C56.8453 239.053 63.6295 238.883 63.6295 238.672C63.6295 238.461 56.8534 238.291 48.4923 238.291C40.1313 238.291 33.3633 238.461 33.3633 238.672Z" fill="#263238"/>
<path d="M224.178 77.9565C234.671 75.5652 241.349 73.6522 244.688 46.8696L243.257 44.9565L224.178 68.3913C222.27 70.7826 223.701 76.5218 224.178 77.9565Z" fill="#DCA8A5"/>
<path d="M244.75 34.5466C244.75 34.5466 245.559 61.3422 230.333 69.1255C221.786 73.4874 215.179 74.6468 208.322 66.3933C205.174 62.5217 203.025 57.9331 202.064 53.0319C199.735 41.7867 200.527 36.1681 198.473 29.8036C197.268 25.7809 195.519 21.9428 193.274 18.3962C193.274 18.3962 212.826 6.70504 234.262 19.5556C236.828 21.0512 239.063 23.0556 240.83 25.4463C242.597 27.837 243.859 30.5638 244.54 33.4602C244.629 33.825 244.694 34.1817 244.75 34.5466Z" fill="url(#paint6_linear)"/>
<path d="M200.204 40.0192C199.751 32.6008 198.053 28.547 198.053 28.547C197.697 26.2363 198.862 24.4932 200.843 23.2203C201.57 23.123 202.791 22.9203 204.077 22.7014C204.077 22.7014 203.543 25.0607 200.471 25.0364C200.471 25.0364 203.074 25.8471 205.08 24.7931C206.745 23.9824 208.015 21.7122 209.187 20.4312C210.853 20.1651 212.532 19.9973 214.217 19.9286C225.942 19.434 229.104 24.0472 229.176 24.2986C230.794 32.9737 234.028 30.282 236.308 35.1385C238.589 39.9949 239.882 43.2461 239.882 43.2461V38.8193C241.791 33.3791 243.61 40.376 243.61 40.376L247.549 60.7391C247.549 60.7391 256.912 41.1786 250.92 20.9096C249.697 17.0501 247.73 13.469 245.13 10.3697C244.39 9.55683 243.471 8.92781 242.447 8.5324C241.422 8.13698 240.32 7.98602 239.227 8.09146C235.411 8.43198 227.907 11.4156 220.411 9.07248C210.748 6.04024 191.568 12.3966 192.684 22.1501C194.002 33.6872 200.26 40.8057 200.204 40.0192Z" fill="#473765"/>
<path d="M212.616 43.7649L211.856 50.3969L218.131 51.7103L212.923 49.6186L212.616 43.7649Z" fill="#F59B91"/>
<path d="M221.292 37.9031C220.216 37.9031 219.344 37.0283 219.344 35.9492C219.344 34.87 220.216 33.9952 221.292 33.9952C222.369 33.9952 223.241 34.87 223.241 35.9492C223.241 37.0283 222.369 37.9031 221.292 37.9031Z" fill="#493764"/>
<path d="M206.058 40.3759C204.982 40.3759 204.109 39.5011 204.109 38.422C204.109 37.3428 204.982 36.468 206.058 36.468C207.134 36.468 208.007 37.3428 208.007 38.422C208.007 39.5011 207.134 40.3759 206.058 40.3759Z" fill="#493764"/>
<path d="M217.492 30.1359C220.896 29.1029 224.543 29.2082 227.883 30.4359C224.22 26.074 216.788 28.3604 216.788 28.3604C216.788 28.3604 215.543 29.8684 217.492 30.1359Z" fill="#453764"/>
<path d="M207.821 30.1198C207.821 30.1198 200.325 30.4359 199.921 34.0438C199.921 34.0438 201.465 32.2034 208.088 31.798C210.683 30.9305 207.821 30.1198 207.821 30.1198Z" fill="#453764"/>
<path d="M214.169 59.6881C214.169 59.6881 221.017 60.3773 223.815 54.3452C223.815 54.3452 225.182 65.0229 214.169 59.6881Z" fill="white"/>
<path d="M239.585 38.6088C240.087 41.7302 241.55 47.1299 244.663 46.6272C247.777 46.1245 250.954 40.06 250.453 36.8981C249.952 33.7361 248.262 29.8525 242.804 30.7363C239.723 31.2795 239.108 35.4792 239.585 38.6088Z" fill="url(#paint7_linear)"/>
<path d="M195.708 7.93733C195.708 7.93733 192.562 8.74809 185.786 7.93733C185.786 7.93733 188.018 18.2421 203.681 18.4772C219.344 18.7123 239.688 16.0449 241.783 9.51021C242.276 7.94544 241.645 0.356717 231.182 0.0324126C222.95 -0.227031 218.923 1.0864 213.958 1.86473C208.492 2.71603 197.374 5.2375 191.924 3.80245C192.219 4.72487 192.71 5.57215 193.364 6.28596C194.017 6.99977 194.817 7.56316 195.708 7.93733Z" fill="#473765"/>
</g>
<defs>
<linearGradient id="paint0_linear" x1="156.709" y1="119.53" x2="287.971" y2="144.737" gradientUnits="userSpaceOnUse">
<stop stop-color="#1E9DD7"/>
<stop offset="0.65" stop-color="#1076AF"/>
<stop offset="1" stop-color="#085E97"/>
</linearGradient>
<linearGradient id="paint1_linear" x1="-23827.8" y1="5218.84" x2="-17183.5" y2="15312.3" gradientUnits="userSpaceOnUse">
<stop stop-color="#1E9DD7"/>
<stop offset="0.65" stop-color="#1076AF"/>
<stop offset="1" stop-color="#085E97"/>
</linearGradient>
<linearGradient id="paint2_linear" x1="-13936.7" y1="13317.2" x2="-11460.9" y2="9578.65" gradientUnits="userSpaceOnUse">
<stop stop-color="#1E9DD7"/>
<stop offset="0.65" stop-color="#1076AF"/>
<stop offset="1" stop-color="#085E97"/>
</linearGradient>
<linearGradient id="paint3_linear" x1="223.37" y1="326.915" x2="49.8961" y2="39.7942" gradientUnits="userSpaceOnUse">
<stop stop-color="#263238"/>
<stop offset="1" stop-color="#4C3865"/>
</linearGradient>
<linearGradient id="paint4_linear" x1="-9566.18" y1="47399" x2="-23715.4" y2="1376.09" gradientUnits="userSpaceOnUse">
<stop stop-color="#263238"/>
<stop offset="1" stop-color="#4C3865"/>
</linearGradient>
<linearGradient id="paint5_linear" x1="157.878" y1="91.3479" x2="245.486" y2="66.8192" gradientUnits="userSpaceOnUse">
<stop stop-color="#FFDFD2"/>
<stop offset="0.36" stop-color="#FFDCD0"/>
<stop offset="0.63" stop-color="#FFD2CA"/>
<stop offset="0.87" stop-color="#FFC2C0"/>
<stop offset="1" stop-color="#FFB6B9"/>
</linearGradient>
<linearGradient id="paint6_linear" x1="185.066" y1="51.6522" x2="321.995" y2="19.7721" gradientUnits="userSpaceOnUse">
<stop stop-color="#FFD3CB"/>
<stop offset="1" stop-color="#FFB7BA"/>
</linearGradient>
<linearGradient id="paint7_linear" x1="240.114" y1="42.999" x2="247.816" y2="34.2094" gradientUnits="userSpaceOnUse">
<stop stop-color="#FFDFD2"/>
<stop offset="1" stop-color="#FFB7BA"/>
</linearGradient>
<clipPath id="clip0">
<rect width="290" height="264" fill="white" transform="matrix(-1 0 0 1 290 0)"/>
</clipPath>
</defs>
</svg>
