<svg width="60" height="60" viewBox="0 0 60 60" fill="none" xmlns="http://www.w3.org/2000/svg">
<g clip-path="url(#clip0)">
<rect x="35" y="51" width="23" height="7" rx="1" fill="#C0A3EA"/>
<rect y="16" width="29" height="33" rx="3" fill="#C0A3EA"/>
<path d="M59.3266 33.5738C58.8538 33.0656 58.1841 32.774 57.4896 32.774H52.625V32.2975C52.625 27.4393 48.6726 23.4869 43.8144 23.4869C38.9566 23.4869 35.0043 27.4393 35.0043 32.2975V32.774H30.1396C29.4452 32.774 28.7755 33.0656 28.3026 33.5738C27.8293 34.0819 27.5862 34.7704 27.6357 35.463L28.5983 48.9821H1.75781V18.1206C1.75781 17.3987 2.34512 16.8118 3.06702 16.8118H8.13629V19.8225C8.13629 20.5605 8.73642 21.1606 9.47433 21.1606H11.9518C12.6897 21.1606 13.2903 20.5605 13.2903 19.8225V16.8118H27.3422V19.8225C27.3422 20.5605 27.9424 21.1606 28.6803 21.1606H31.1581C31.8961 21.1606 32.4962 20.5605 32.4962 19.8225V16.8118H37.5659C38.2874 16.8118 38.8751 17.3987 38.8751 18.1206V21.8285C38.8751 22.3137 39.2683 22.7074 39.754 22.7074C40.2393 22.7074 40.6329 22.3137 40.6329 21.8285V18.1206C40.6329 16.4296 39.2569 15.054 37.5659 15.054H32.4962V6.7392C32.4962 3.47534 29.8412 0.820312 26.5773 0.820312H14.0547C10.7913 0.820312 8.13629 3.47534 8.13629 6.7392V10.9904C8.13629 11.4761 8.52951 11.8694 9.0152 11.8694C9.50043 11.8694 9.8941 11.4761 9.8941 10.9904V6.7392C9.8941 4.44489 11.7604 2.57813 14.0547 2.57813H26.5773C28.8716 2.57813 30.7384 4.44489 30.7384 6.7392V19.4028H29.1V15.9508C29.1 15.9448 29.1 15.9389 29.1 15.9325C29.1 15.9265 29.1 15.9206 29.1 15.9146V7.46338C29.1 5.67307 27.643 4.21646 25.8527 4.21646H14.7794C12.989 4.21646 11.532 5.67307 11.532 7.46338V19.4028H9.8941V15.9508C9.8941 15.9448 9.8941 15.9389 9.8941 15.9325C9.8941 15.9265 9.8941 15.9206 9.8941 15.9146V14.5061C9.8941 14.0208 9.50043 13.6272 9.0152 13.6272C8.52951 13.6272 8.13629 14.0208 8.13629 14.5061V15.0536H3.06702C1.37558 15.0536 0 16.4296 0 18.1206V52.8983C0 54.5892 1.37558 55.9653 3.06702 55.9653H29.0955L29.1403 56.5956C29.2419 58.0197 30.4395 59.1348 31.8668 59.1348H55.7625C57.1898 59.1348 58.3873 58.0197 58.4889 56.5956L58.976 49.7534C59.0108 49.2696 58.6459 48.8489 58.1616 48.8145C57.6805 48.7798 57.2571 49.1446 57.2227 49.6285L56.7357 56.4711C56.6991 56.9792 56.272 57.377 55.7625 57.377H31.8668C31.3577 57.377 30.9302 56.9792 30.894 56.4711L30.7924 55.0433C30.7919 55.0301 30.7906 55.0168 30.7896 55.0035L30.4216 49.8363C30.4207 49.8106 30.4189 49.785 30.4161 49.7598L29.3893 35.3375C29.3742 35.127 29.4452 34.926 29.5894 34.7713C29.7331 34.617 29.9286 34.5319 30.1401 34.5319H35.0043V36.0036C33.7752 36.3803 32.8789 37.5261 32.8789 38.877C32.8789 40.5341 34.2265 41.8817 35.8832 41.8817C37.5403 41.8817 38.8879 40.5341 38.8879 38.877C38.8879 37.5261 37.9916 36.3803 36.7621 36.0036V34.5319H50.8672V36.0036C49.6381 36.3803 48.7418 37.5261 48.7418 38.877C48.7418 40.5341 50.0894 41.8817 51.7461 41.8817C53.4032 41.8817 54.7508 40.5341 54.7508 38.877C54.7508 37.5261 53.8545 36.3803 52.625 36.0036V34.5319H57.4896C57.7011 34.5319 57.8966 34.617 58.0403 34.7713C58.1845 34.926 58.2555 35.127 58.2404 35.338L57.4718 46.1307C57.4374 46.615 57.8018 47.0357 58.2861 47.07C58.7691 47.1062 59.1907 46.74 59.2255 46.2556L59.9936 35.463C60.043 34.7704 59.8 34.0814 59.3266 33.5738ZM14.7794 5.97427H25.8527C26.6739 5.97427 27.3422 6.64215 27.3422 7.46338V15.054H13.2898V7.46338C13.2898 6.64215 13.9581 5.97427 14.7794 5.97427ZM3.06702 54.2075C2.34512 54.2075 1.75781 53.6202 1.75781 52.8983V50.7399H28.7238L28.9705 54.2075H3.06702ZM37.1301 38.877C37.1301 39.5645 36.5707 40.1239 35.8832 40.1239C35.1956 40.1239 34.6367 39.5645 34.6367 38.877C34.6367 38.4796 34.8235 38.1249 35.1141 37.8964C35.2638 38.167 35.5522 38.3496 35.8832 38.3496C36.2141 38.3496 36.5025 38.167 36.6522 37.8964C36.9429 38.1249 37.1301 38.4796 37.1301 38.877ZM52.993 38.877C52.993 39.5645 52.4336 40.1239 51.7461 40.1239C51.0585 40.1239 50.4991 39.5645 50.4991 38.877C50.4991 38.4796 50.6863 38.1249 50.977 37.8964C51.1267 38.167 51.4151 38.3496 51.7461 38.3496C52.077 38.3496 52.3654 38.167 52.5151 37.8964C52.8058 38.1249 52.993 38.4796 52.993 38.877ZM40.6325 32.774V29.6017C40.6325 29.1161 40.2393 28.7228 39.7536 28.7228C39.2679 28.7228 38.8747 29.1161 38.8747 29.6017V32.774H36.7621V32.2975C36.7621 28.4088 39.9257 25.2448 43.8148 25.2448C47.7036 25.2448 50.8672 28.4088 50.8672 32.2975V32.774H40.6325Z" fill="black"/>
</g>
<defs>
<clipPath id="clip0">
<rect width="60" height="60" fill="white"/>
</clipPath>
</defs>
</svg>
