<svg width="198" height="34" viewBox="0 0 198 34" fill="none" xmlns="http://www.w3.org/2000/svg">
<path d="M17.63 9.334V28H14.174C13.478 28 13.022 27.688 12.806 27.064L12.482 25.984C12.122 26.332 11.75 26.65 11.366 26.938C10.982 27.214 10.568 27.454 10.124 27.658C9.692 27.85 9.218 28 8.702 28.108C8.198 28.228 7.646 28.288 7.046 28.288C6.026 28.288 5.12 28.114 4.328 27.766C3.548 27.406 2.888 26.908 2.348 26.272C1.808 25.636 1.4 24.886 1.124 24.022C0.848 23.158 0.71 22.21 0.71 21.178V9.334H6.29V21.178C6.29 22.102 6.5 22.816 6.92 23.32C7.34 23.824 7.958 24.076 8.774 24.076C9.386 24.076 9.956 23.95 10.484 23.698C11.024 23.434 11.546 23.08 12.05 22.636V9.334H17.63ZM26.5693 11.35C26.9293 11.014 27.3013 10.702 27.6853 10.414C28.0693 10.126 28.4773 9.886 28.9093 9.694C29.3533 9.49 29.8273 9.334 30.3313 9.226C30.8473 9.106 31.4053 9.046 32.0053 9.046C33.0253 9.046 33.9253 9.226 34.7053 9.586C35.4973 9.934 36.1633 10.426 36.7033 11.062C37.2433 11.686 37.6513 12.436 37.9273 13.312C38.2033 14.176 38.3413 15.118 38.3413 16.138V28H32.7613V16.138C32.7613 15.226 32.5513 14.518 32.1313 14.014C31.7113 13.498 31.0933 13.24 30.2773 13.24C29.6653 13.24 29.0893 13.372 28.5493 13.636C28.0213 13.888 27.5053 14.236 27.0013 14.68V28H21.4213V9.334H24.8773C25.5733 9.334 26.0293 9.646 26.2453 10.27L26.5693 11.35ZM47.6585 9.334V28H42.0785V9.334H47.6585ZM48.2345 4.222C48.2345 4.666 48.1445 5.086 47.9645 5.482C47.7845 5.866 47.5385 6.208 47.2265 6.508C46.9145 6.796 46.5485 7.03 46.1285 7.21C45.7205 7.378 45.2825 7.462 44.8145 7.462C44.3585 7.462 43.9325 7.378 43.5365 7.21C43.1405 7.03 42.7865 6.796 42.4745 6.508C42.1745 6.208 41.9345 5.866 41.7545 5.482C41.5865 5.086 41.5025 4.666 41.5025 4.222C41.5025 3.766 41.5865 3.34 41.7545 2.944C41.9345 2.548 42.1745 2.2 42.4745 1.9C42.7865 1.6 43.1405 1.366 43.5365 1.198C43.9325 1.03 44.3585 0.946 44.8145 0.946C45.2825 0.946 45.7205 1.03 46.1285 1.198C46.5485 1.366 46.9145 1.6 47.2265 1.9C47.5385 2.2 47.7845 2.548 47.9645 2.944C48.1445 3.34 48.2345 3.766 48.2345 4.222ZM57.1302 22.924C57.5502 23.38 58.0062 23.704 58.4982 23.896C58.9902 24.088 59.5062 24.184 60.0462 24.184C60.5622 24.184 61.0362 24.082 61.4682 23.878C61.9002 23.674 62.2722 23.35 62.5842 22.906C62.9082 22.45 63.1602 21.862 63.3402 21.142C63.5202 20.422 63.6102 19.546 63.6102 18.514C63.6102 17.53 63.5382 16.702 63.3942 16.03C63.2502 15.358 63.0462 14.818 62.7822 14.41C62.5302 13.99 62.2242 13.69 61.8642 13.51C61.5042 13.33 61.1022 13.24 60.6582 13.24C59.8422 13.24 59.1702 13.39 58.6422 13.69C58.1142 13.99 57.6102 14.428 57.1302 15.004V22.924ZM56.7882 11.638C57.5202 10.858 58.3482 10.222 59.2722 9.73C60.2082 9.226 61.3182 8.974 62.6022 8.974C63.5742 8.974 64.4742 9.19 65.3022 9.622C66.1302 10.054 66.8442 10.678 67.4442 11.494C68.0442 12.31 68.5122 13.312 68.8482 14.5C69.1962 15.676 69.3702 17.014 69.3702 18.514C69.3702 19.918 69.1722 21.214 68.7762 22.402C68.3922 23.59 67.8462 24.622 67.1382 25.498C66.4422 26.374 65.6022 27.058 64.6182 27.55C63.6462 28.042 62.5662 28.288 61.3782 28.288C60.4062 28.288 59.5902 28.15 58.9302 27.874C58.2702 27.598 57.6702 27.226 57.1302 26.758V33.922H51.5502V9.334H55.0062C55.7022 9.334 56.1582 9.646 56.3742 10.27L56.7882 11.638ZM77.9632 9.334V28H72.3832V9.334H77.9632ZM78.5392 4.222C78.5392 4.666 78.4492 5.086 78.2692 5.482C78.0892 5.866 77.8432 6.208 77.5312 6.508C77.2192 6.796 76.8532 7.03 76.4332 7.21C76.0252 7.378 75.5872 7.462 75.1192 7.462C74.6632 7.462 74.2372 7.378 73.8412 7.21C73.4452 7.03 73.0912 6.796 72.7792 6.508C72.4792 6.208 72.2392 5.866 72.0592 5.482C71.8912 5.086 71.8072 4.666 71.8072 4.222C71.8072 3.766 71.8912 3.34 72.0592 2.944C72.2392 2.548 72.4792 2.2 72.7792 1.9C73.0912 1.6 73.4452 1.366 73.8412 1.198C74.2372 1.03 74.6632 0.946 75.1192 0.946C75.5872 0.946 76.0252 1.03 76.4332 1.198C76.8532 1.366 77.2192 1.6 77.5312 1.9C77.8432 2.2 78.0892 2.548 78.2692 2.944C78.4492 3.34 78.5392 3.766 78.5392 4.222ZM95.5708 13.762C95.4028 13.966 95.2408 14.128 95.0848 14.248C94.9288 14.368 94.7068 14.428 94.4188 14.428C94.1428 14.428 93.8908 14.362 93.6628 14.23C93.4468 14.098 93.2008 13.954 92.9248 13.798C92.6488 13.63 92.3248 13.48 91.9528 13.348C91.5808 13.216 91.1188 13.15 90.5668 13.15C89.8828 13.15 89.2888 13.276 88.7848 13.528C88.2928 13.78 87.8848 14.14 87.5608 14.608C87.2368 15.076 86.9968 15.652 86.8408 16.336C86.6848 17.008 86.6068 17.77 86.6068 18.622C86.6068 20.41 86.9488 21.784 87.6328 22.744C88.3288 23.704 89.2828 24.184 90.4948 24.184C91.1428 24.184 91.6528 24.106 92.0248 23.95C92.4088 23.782 92.7328 23.602 92.9968 23.41C93.2608 23.206 93.5008 23.02 93.7168 22.852C93.9448 22.684 94.2268 22.6 94.5628 22.6C95.0068 22.6 95.3428 22.762 95.5708 23.086L97.1908 25.084C96.6148 25.744 96.0088 26.284 95.3728 26.704C94.7368 27.112 94.0828 27.436 93.4108 27.676C92.7508 27.904 92.0848 28.06 91.4128 28.144C90.7408 28.24 90.0868 28.288 89.4508 28.288C88.3108 28.288 87.2188 28.072 86.1748 27.64C85.1428 27.208 84.2308 26.584 83.4388 25.768C82.6588 24.94 82.0348 23.926 81.5668 22.726C81.1108 21.526 80.8828 20.158 80.8828 18.622C80.8828 17.278 81.0808 16.024 81.4768 14.86C81.8848 13.684 82.4788 12.67 83.2588 11.818C84.0508 10.954 85.0228 10.276 86.1748 9.784C87.3388 9.292 88.6828 9.046 90.2068 9.046C91.6708 9.046 92.9548 9.28 94.0588 9.748C95.1628 10.216 96.1588 10.9 97.0468 11.8L95.5708 13.762ZM111.225 13.42C111.081 13.648 110.925 13.81 110.757 13.906C110.601 14.002 110.397 14.05 110.145 14.05C109.881 14.05 109.617 13.996 109.353 13.888C109.089 13.768 108.801 13.642 108.489 13.51C108.189 13.378 107.847 13.258 107.463 13.15C107.079 13.03 106.641 12.97 106.149 12.97C105.441 12.97 104.895 13.108 104.511 13.384C104.139 13.648 103.953 14.02 103.953 14.5C103.953 14.848 104.073 15.136 104.313 15.364C104.565 15.592 104.895 15.796 105.303 15.976C105.711 16.144 106.173 16.306 106.689 16.462C107.205 16.618 107.733 16.792 108.273 16.984C108.813 17.176 109.341 17.404 109.857 17.668C110.373 17.92 110.835 18.238 111.243 18.622C111.651 18.994 111.975 19.45 112.215 19.99C112.467 20.53 112.593 21.178 112.593 21.934C112.593 22.858 112.425 23.71 112.089 24.49C111.753 25.27 111.249 25.942 110.577 26.506C109.917 27.07 109.095 27.508 108.111 27.82C107.139 28.132 106.017 28.288 104.745 28.288C104.109 28.288 103.473 28.228 102.837 28.108C102.201 27.988 101.583 27.826 100.983 27.622C100.395 27.418 99.8487 27.178 99.3447 26.902C98.8407 26.614 98.4087 26.308 98.0487 25.984L99.3447 23.932C99.4887 23.692 99.6687 23.506 99.8847 23.374C100.113 23.23 100.401 23.158 100.749 23.158C101.073 23.158 101.361 23.23 101.613 23.374C101.877 23.518 102.159 23.674 102.459 23.842C102.759 24.01 103.107 24.166 103.503 24.31C103.911 24.454 104.421 24.526 105.033 24.526C105.465 24.526 105.831 24.484 106.131 24.4C106.431 24.304 106.671 24.178 106.851 24.022C107.031 23.866 107.163 23.692 107.247 23.5C107.331 23.308 107.373 23.11 107.373 22.906C107.373 22.534 107.247 22.228 106.995 21.988C106.743 21.748 106.413 21.544 106.005 21.376C105.597 21.196 105.129 21.034 104.601 20.89C104.085 20.734 103.557 20.56 103.017 20.368C102.477 20.176 101.943 19.948 101.415 19.684C100.899 19.408 100.437 19.066 100.029 18.658C99.6207 18.238 99.2907 17.728 99.0387 17.128C98.7867 16.528 98.6607 15.802 98.6607 14.95C98.6607 14.158 98.8107 13.408 99.1107 12.7C99.4227 11.98 99.8847 11.35 100.497 10.81C101.109 10.27 101.877 9.844 102.801 9.532C103.725 9.208 104.805 9.046 106.041 9.046C106.713 9.046 107.361 9.106 107.985 9.226C108.621 9.346 109.215 9.514 109.767 9.73C110.319 9.946 110.823 10.204 111.279 10.504C111.735 10.792 112.137 11.11 112.485 11.458L111.225 13.42ZM114.638 25.174C114.638 24.742 114.716 24.34 114.872 23.968C115.04 23.596 115.262 23.272 115.538 22.996C115.826 22.72 116.162 22.504 116.546 22.348C116.93 22.18 117.35 22.096 117.806 22.096C118.25 22.096 118.664 22.18 119.048 22.348C119.432 22.504 119.768 22.72 120.056 22.996C120.344 23.272 120.566 23.596 120.722 23.968C120.89 24.34 120.974 24.742 120.974 25.174C120.974 25.606 120.89 26.014 120.722 26.398C120.566 26.77 120.344 27.094 120.056 27.37C119.768 27.646 119.432 27.862 119.048 28.018C118.664 28.174 118.25 28.252 117.806 28.252C117.35 28.252 116.93 28.174 116.546 28.018C116.162 27.862 115.826 27.646 115.538 27.37C115.262 27.094 115.04 26.77 114.872 26.398C114.716 26.014 114.638 25.606 114.638 25.174ZM137.723 13.762C137.555 13.966 137.393 14.128 137.237 14.248C137.081 14.368 136.859 14.428 136.571 14.428C136.295 14.428 136.043 14.362 135.815 14.23C135.599 14.098 135.353 13.954 135.077 13.798C134.801 13.63 134.477 13.48 134.105 13.348C133.733 13.216 133.271 13.15 132.719 13.15C132.035 13.15 131.441 13.276 130.937 13.528C130.445 13.78 130.037 14.14 129.713 14.608C129.389 15.076 129.149 15.652 128.993 16.336C128.837 17.008 128.759 17.77 128.759 18.622C128.759 20.41 129.101 21.784 129.785 22.744C130.481 23.704 131.435 24.184 132.647 24.184C133.295 24.184 133.805 24.106 134.177 23.95C134.561 23.782 134.885 23.602 135.149 23.41C135.413 23.206 135.653 23.02 135.869 22.852C136.097 22.684 136.379 22.6 136.715 22.6C137.159 22.6 137.495 22.762 137.723 23.086L139.343 25.084C138.767 25.744 138.161 26.284 137.525 26.704C136.889 27.112 136.235 27.436 135.563 27.676C134.903 27.904 134.237 28.06 133.565 28.144C132.893 28.24 132.239 28.288 131.603 28.288C130.463 28.288 129.371 28.072 128.327 27.64C127.295 27.208 126.383 26.584 125.591 25.768C124.811 24.94 124.187 23.926 123.719 22.726C123.263 21.526 123.035 20.158 123.035 18.622C123.035 17.278 123.233 16.024 123.629 14.86C124.037 13.684 124.631 12.67 125.411 11.818C126.203 10.954 127.175 10.276 128.327 9.784C129.491 9.292 130.835 9.046 132.359 9.046C133.823 9.046 135.107 9.28 136.211 9.748C137.315 10.216 138.311 10.9 139.199 11.8L137.723 13.762ZM149.803 9.046C151.219 9.046 152.509 9.268 153.673 9.712C154.837 10.156 155.833 10.792 156.661 11.62C157.501 12.448 158.149 13.456 158.605 14.644C159.073 15.82 159.307 17.146 159.307 18.622C159.307 20.11 159.073 21.454 158.605 22.654C158.149 23.842 157.501 24.856 156.661 25.696C155.833 26.524 154.837 27.166 153.673 27.622C152.509 28.066 151.219 28.288 149.803 28.288C148.375 28.288 147.073 28.066 145.897 27.622C144.733 27.166 143.725 26.524 142.873 25.696C142.033 24.856 141.379 23.842 140.911 22.654C140.455 21.454 140.227 20.11 140.227 18.622C140.227 17.146 140.455 15.82 140.911 14.644C141.379 13.456 142.033 12.448 142.873 11.62C143.725 10.792 144.733 10.156 145.897 9.712C147.073 9.268 148.375 9.046 149.803 9.046ZM149.803 24.148C151.087 24.148 152.029 23.698 152.629 22.798C153.241 21.886 153.547 20.506 153.547 18.658C153.547 16.81 153.241 15.436 152.629 14.536C152.029 13.636 151.087 13.186 149.803 13.186C148.483 13.186 147.517 13.636 146.905 14.536C146.293 15.436 145.987 16.81 145.987 18.658C145.987 20.506 146.293 21.886 146.905 22.798C147.517 23.698 148.483 24.148 149.803 24.148ZM161.361 25.174C161.361 24.742 161.439 24.34 161.595 23.968C161.763 23.596 161.985 23.272 162.261 22.996C162.549 22.72 162.885 22.504 163.269 22.348C163.653 22.18 164.073 22.096 164.529 22.096C164.973 22.096 165.387 22.18 165.771 22.348C166.155 22.504 166.491 22.72 166.779 22.996C167.067 23.272 167.289 23.596 167.445 23.968C167.613 24.34 167.697 24.742 167.697 25.174C167.697 25.606 167.613 26.014 167.445 26.398C167.289 26.77 167.067 27.094 166.779 27.37C166.491 27.646 166.155 27.862 165.771 28.018C165.387 28.174 164.973 28.252 164.529 28.252C164.073 28.252 163.653 28.174 163.269 28.018C162.885 27.862 162.549 27.646 162.261 27.37C161.985 27.094 161.763 26.77 161.595 26.398C161.439 26.014 161.361 25.606 161.361 25.174ZM176.436 9.334V28H170.856V9.334H176.436ZM177.012 4.222C177.012 4.666 176.922 5.086 176.742 5.482C176.562 5.866 176.316 6.208 176.004 6.508C175.692 6.796 175.326 7.03 174.906 7.21C174.498 7.378 174.06 7.462 173.592 7.462C173.136 7.462 172.71 7.378 172.314 7.21C171.918 7.03 171.564 6.796 171.252 6.508C170.952 6.208 170.712 5.866 170.532 5.482C170.364 5.086 170.28 4.666 170.28 4.222C170.28 3.766 170.364 3.34 170.532 2.944C170.712 2.548 170.952 2.2 171.252 1.9C171.564 1.6 171.918 1.366 172.314 1.198C172.71 1.03 173.136 0.946 173.592 0.946C174.06 0.946 174.498 1.03 174.906 1.198C175.326 1.366 175.692 1.6 176.004 1.9C176.316 2.2 176.562 2.548 176.742 2.944C176.922 3.34 177.012 3.766 177.012 4.222ZM191.65 14.338C191.23 13.87 190.774 13.546 190.282 13.366C189.79 13.174 189.274 13.078 188.734 13.078C188.218 13.078 187.744 13.18 187.312 13.384C186.88 13.588 186.502 13.918 186.178 14.374C185.866 14.818 185.62 15.4 185.44 16.12C185.26 16.84 185.17 17.71 185.17 18.73C185.17 19.714 185.242 20.542 185.386 21.214C185.53 21.886 185.728 22.432 185.98 22.852C186.244 23.26 186.556 23.554 186.916 23.734C187.276 23.914 187.678 24.004 188.122 24.004C188.53 24.004 188.896 23.968 189.22 23.896C189.556 23.812 189.862 23.698 190.138 23.554C190.414 23.41 190.672 23.23 190.912 23.014C191.164 22.786 191.41 22.528 191.65 22.24V14.338ZM197.23 1.054V28H193.774C193.078 28 192.622 27.688 192.406 27.064L191.974 25.642C191.602 26.038 191.212 26.398 190.804 26.722C190.396 27.046 189.952 27.328 189.472 27.568C189.004 27.796 188.493 27.97 187.941 28.09C187.402 28.222 186.814 28.288 186.178 28.288C185.206 28.288 184.306 28.072 183.478 27.64C182.65 27.208 181.936 26.584 181.336 25.768C180.736 24.952 180.262 23.956 179.914 22.78C179.578 21.592 179.41 20.242 179.41 18.73C179.41 17.338 179.602 16.048 179.986 14.86C180.37 13.66 180.91 12.628 181.606 11.764C182.314 10.888 183.16 10.204 184.144 9.712C185.128 9.22 186.214 8.974 187.402 8.974C188.374 8.974 189.19 9.112 189.85 9.388C190.51 9.664 191.11 10.036 191.65 10.504V1.054H197.23Z" fill="#065B91"/>
</svg>
