<svg width="390" height="386" viewBox="0 0 390 386" fill="none" xmlns="http://www.w3.org/2000/svg">
<g clip-path="url(#clip0)">
<path d="M347.949 220.377C324.628 220.516 305.679 209.044 305.587 194.747C305.545 187.602 310.224 181.103 317.843 176.371L308.253 155.347L328.259 171.616C334.527 169.63 341.063 168.616 347.638 168.61C370.959 168.471 389.907 179.948 390 194.246C390.093 208.543 371.256 220.243 347.949 220.377Z" fill="url(#paint0_linear)"/>
<path d="M69.9171 56.2715L134.274 55.8076C134.976 55.8002 135.647 55.516 136.142 55.0165C136.636 54.5171 136.913 53.8428 136.913 53.1401L136.588 10.1873C136.58 9.4847 136.294 8.81384 135.794 8.32047C135.294 7.8271 134.619 7.55107 133.917 7.55234L69.5647 8.01625C68.8623 8.02477 68.1914 8.30926 67.6968 8.80832C67.2023 9.30738 66.9238 9.98098 66.9214 10.6837L67.246 53.6365C67.2545 54.3391 67.5399 55.01 68.04 55.5033C68.5402 55.9967 69.2147 56.2727 69.9171 56.2715Z" fill="#4C3865"/>
<path d="M134.622 31.4155L155.42 52.5556L129.785 47.7774L134.622 31.4155Z" fill="#4C3865"/>
<path d="M296.135 42.3683L295.505 34.2361L288.442 30.1537C288.259 30.0428 288.111 29.8819 288.015 29.6898C287.918 29.506 287.875 29.2986 287.89 29.0914C287.905 28.8826 287.977 28.682 288.099 28.5115C288.216 28.3451 288.376 28.2137 288.563 28.1311L296.112 25.009L297.828 17.0206C297.875 16.8196 297.976 16.6352 298.12 16.4871C298.264 16.3375 298.447 16.2314 298.649 16.1809C298.847 16.1253 299.058 16.1253 299.256 16.1809C299.454 16.2411 299.63 16.3552 299.766 16.5103L305.062 22.7173L313.187 21.8638C313.395 21.8454 313.605 21.8822 313.794 21.9705C313.984 22.0634 314.144 22.2061 314.258 22.3833C314.37 22.561 314.43 22.7669 314.43 22.9771C314.43 23.1867 314.372 23.3924 314.263 23.5709L309.987 30.5295L313.294 37.989C313.379 38.1794 313.408 38.3904 313.377 38.5968C313.348 38.8052 313.262 39.0014 313.127 39.1627C312.991 39.3219 312.815 39.4406 312.616 39.506C312.42 39.5755 312.207 39.5852 312.004 39.5338L304.07 37.6272L297.995 43.0873C297.838 43.2267 297.645 43.3199 297.438 43.3564C297.232 43.3908 297.021 43.3683 296.826 43.2915C296.634 43.2117 296.465 43.082 296.339 42.9157C296.226 42.7536 296.156 42.5652 296.135 42.3683Z" fill="url(#paint1_linear)"/>
<path d="M165.27 167.993L164.639 159.861L157.577 155.779C157.396 155.674 157.249 155.521 157.151 155.336C157.054 155.151 157.01 154.943 157.025 154.735C157.04 154.526 157.112 154.326 157.234 154.155C157.351 153.989 157.511 153.857 157.697 153.775L165.247 150.648L166.963 142.664C167.01 142.463 167.111 142.279 167.255 142.131C167.399 141.981 167.582 141.875 167.784 141.825C167.982 141.769 168.192 141.769 168.391 141.825C168.588 141.885 168.765 141.999 168.901 142.154L174.211 148.389L182.317 147.521C182.525 147.503 182.735 147.54 182.924 147.628C183.114 147.721 183.274 147.864 183.388 148.041C183.499 148.218 183.557 148.423 183.557 148.632C183.557 148.841 183.499 149.046 183.388 149.224L179.113 156.182L182.419 163.637C182.504 163.829 182.533 164.042 182.502 164.25C182.475 164.457 182.388 164.652 182.252 164.811C182.118 164.973 181.941 165.094 181.742 165.159C181.545 165.228 181.332 165.238 181.13 165.187L173.195 163.28L167.12 168.74C166.963 168.88 166.771 168.973 166.564 169.009C166.358 169.044 166.146 169.021 165.952 168.944C165.759 168.865 165.591 168.735 165.465 168.569C165.35 168.397 165.283 168.199 165.27 167.993Z" fill="url(#paint2_linear)"/>
<path d="M341.976 106.582L341.581 101.943L337.533 99.6232C337.429 99.5643 337.344 99.4775 337.287 99.3727C337.23 99.2678 337.204 99.1486 337.213 99.0294C337.22 98.9107 337.26 98.7964 337.329 98.6995C337.398 98.6027 337.493 98.5273 337.603 98.482L341.897 96.6728L342.824 92.1173C342.851 92.0029 342.907 91.8974 342.987 91.8111C343.07 91.7242 343.176 91.6617 343.293 91.6302C343.408 91.6001 343.53 91.6001 343.645 91.6302C343.758 91.667 343.86 91.7345 343.937 91.825L346.984 95.3414L351.621 94.8311C351.742 94.8169 351.864 94.8361 351.974 94.8868C352.081 94.9409 352.172 95.0226 352.238 95.1234C352.302 95.2248 352.336 95.3422 352.336 95.462C352.336 95.5819 352.302 95.6993 352.238 95.8007L349.831 99.781L351.751 104.016C351.798 104.126 351.815 104.246 351.802 104.364C351.785 104.483 351.737 104.595 351.663 104.689C351.584 104.779 351.483 104.848 351.371 104.889C351.257 104.921 351.137 104.921 351.023 104.889L346.478 103.854L343.033 106.985C342.944 107.065 342.835 107.118 342.718 107.138C342.599 107.16 342.477 107.149 342.365 107.106C342.255 107.061 342.159 106.987 342.087 106.893C342.024 106.8 341.986 106.693 341.976 106.582Z" fill="url(#paint3_linear)"/>
<path d="M25.8206 81.1228L27.7637 76.9012L25.3847 72.8978C25.3239 72.7938 25.2934 72.6749 25.2966 72.5545C25.2983 72.4357 25.3337 72.3199 25.3986 72.2205C25.4649 72.1225 25.5562 72.044 25.663 71.9931C25.7716 71.9429 25.8919 71.9236 26.0108 71.9375L30.6481 72.4849L33.718 68.9917C33.7981 68.9029 33.9006 68.8372 34.0148 68.8015C34.1285 68.7691 34.2489 68.7691 34.3626 68.8015C34.4779 68.8302 34.5825 68.8914 34.664 68.9778C34.7466 69.0657 34.8028 69.175 34.8263 69.2932L35.7538 73.8534L40.0294 75.709C40.1397 75.7563 40.2346 75.8335 40.3035 75.9319C40.3723 76.0302 40.4123 76.1458 40.419 76.2657C40.4239 76.3851 40.3966 76.5037 40.3401 76.609C40.2802 76.7131 40.1938 76.7995 40.0897 76.8595L36.0274 79.128L35.6054 83.767C35.5922 83.885 35.5473 83.9972 35.4756 84.0917C35.4047 84.1876 35.3083 84.2615 35.1973 84.3051C35.0847 84.3468 34.9627 84.3565 34.8449 84.333C34.7284 84.3111 34.6206 84.2564 34.5342 84.1752L31.1118 81.0114L26.5673 82.032C26.4539 82.0667 26.3328 82.0667 26.2195 82.032C26.1048 81.9955 26.0043 81.9241 25.9319 81.8279C25.8559 81.736 25.8076 81.6244 25.7928 81.506C25.7781 81.3877 25.7974 81.2676 25.8485 81.1599L25.8206 81.1228Z" fill="url(#paint4_linear)"/>
<path d="M314.161 65.3872L325.291 56.9395L328.018 61.8337L334.681 57.0323L338.396 64.0465L347.156 58.0436L349.289 62.8635L338.632 69.9659L334.092 62.729L327.424 67.6789L324.108 62.1909L316.294 67.8737L314.161 65.3872Z" fill="#4C3865"/>
<path d="M37.0755 212.273L29.5398 224.037L25.2966 220.382L20.6918 227.187L14.7884 221.88L8.63005 230.537L4.97119 226.747L12.5301 216.406L19.2867 221.639L23.8405 214.69L28.8442 218.703L34.2189 210.672L37.0755 212.273Z" fill="url(#paint5_linear)"/>
<path d="M0.0695121 139.714C-0.79767 146.515 6.28354 151.91 12.5903 151.488C19.5463 151.024 25.4589 145.304 26.4745 138.461C27.5782 131.039 23.131 125.129 16.2445 124.586C9.54823 124.057 5.25869 130.023 7.1971 136.044C8.5883 140.363 12.5208 141.968 14.5055 140.781C16.0498 139.853 15.957 137.51 14.0835 137.097C13.7176 137.036 13.3416 137.082 13.001 137.229C12.6604 137.376 12.3696 137.619 12.1637 137.928C10.5267 137.274 8.96393 134.291 10.0212 131.067C11.3753 126.952 16.5784 126.715 19.8107 128.636C23.9193 131.081 24.5686 136.341 23.0568 140.535C21.4708 144.937 17.1488 148.421 12.4419 148.741C9.86702 148.902 7.33158 148.048 5.37872 146.361C3.42585 144.675 2.21086 142.29 1.994 139.718C1.99462 139.463 1.89383 139.218 1.71381 139.037C1.53379 138.856 1.28928 138.754 1.03408 138.753C0.778875 138.753 0.533876 138.854 0.352984 139.034C0.172093 139.214 0.0701271 139.458 0.0695121 139.714Z" fill="#4C3865"/>
<path d="M302.424 274.348C301.561 281.149 308.638 286.548 314.945 286.122C321.901 285.658 327.813 279.938 328.829 273.095C329.933 265.673 325.485 259.767 318.599 259.22C311.903 258.696 307.613 264.661 309.551 270.678C310.943 274.997 314.875 276.607 316.86 275.415C318.404 274.487 318.311 272.144 316.442 271.731C316.076 271.671 315.7 271.717 315.358 271.864C315.017 272.011 314.725 272.253 314.518 272.562C312.881 271.912 311.318 268.925 312.38 265.701C313.73 261.586 318.933 261.349 322.165 263.27C326.274 265.715 326.923 270.975 325.411 275.169C323.825 279.571 319.503 283.055 314.796 283.375C312.221 283.536 309.686 282.682 307.733 280.995C305.78 279.309 304.565 276.924 304.348 274.352C304.349 274.097 304.248 273.852 304.068 273.671C303.888 273.49 303.644 273.388 303.388 273.388C303.133 273.387 302.888 273.488 302.707 273.668C302.526 273.848 302.424 274.092 302.424 274.348Z" fill="#4C3865"/>
<path d="M363.043 189.713L357.014 188.521C357.014 188.521 350.304 187.807 349.312 182.003C348.973 180.036 350.313 175.819 349.149 175.29C348.235 174.835 347.178 174.756 346.207 175.071C345.235 175.386 344.425 176.069 343.951 176.974C342.819 178.881 343.761 185.849 343.061 186.313C342.62 186.605 339.188 186.642 336.684 186.628C335.876 186.622 335.081 186.839 334.387 187.253C333.693 187.668 333.125 188.265 332.747 188.98C332.493 189.458 332.412 190.009 332.516 190.54C332.619 191.072 332.903 191.551 333.317 191.898L334.648 193.012L333.6 194.403C333.228 194.902 333.067 195.529 333.154 196.146C333.241 196.763 333.568 197.32 334.064 197.697L335.117 198.49L334.421 199.325C334.202 199.574 334.038 199.866 333.94 200.183C333.841 200.5 333.811 200.834 333.85 201.163C333.889 201.492 333.998 201.809 334.168 202.094C334.338 202.378 334.567 202.624 334.839 202.814L335.766 203.468L335.627 203.728C335.346 204.246 335.269 204.85 335.411 205.422C335.554 205.994 335.905 206.492 336.397 206.817L337.324 207.439L353.216 207.722C354.705 207.75 356.184 207.472 357.562 206.905L363.173 206.08C363.464 206.036 363.731 205.89 363.924 205.667C364.117 205.444 364.224 205.159 364.225 204.864L364.258 190.947C364.259 190.623 364.132 190.311 363.904 190.08C363.677 189.849 363.367 189.717 363.043 189.713Z" fill="white"/>
<path d="M114.69 35.5768L113.693 36.2633V44.3306L114.69 45.0218L121.503 49.7444V30.8542L114.69 35.5768Z" fill="url(#paint6_linear)"/>
<path d="M111.88 29.6991H85.2248C84.2234 29.6991 83.4116 30.5112 83.4116 31.5129V49.0856C83.4116 50.0874 84.2234 50.8995 85.2248 50.8995H111.88C112.882 50.8995 113.693 50.0874 113.693 49.0856V31.5129C113.693 30.5112 112.882 29.6991 111.88 29.6991Z" fill="url(#paint7_linear)"/>
<path d="M111.83 20.9174C111.83 22.1101 111.476 23.2761 110.814 24.2679C110.151 25.2596 109.21 26.0326 108.108 26.489C107.006 26.9455 105.794 27.0649 104.625 26.8322C103.455 26.5995 102.381 26.0252 101.538 25.1817C100.695 24.3383 100.121 23.2638 99.8883 22.0939C99.6557 20.9241 99.7751 19.7115 100.231 18.6095C100.688 17.5075 101.46 16.5657 102.452 15.903C103.443 15.2403 104.609 14.8866 105.801 14.8866C107.4 14.8866 108.933 15.522 110.064 16.653C111.194 17.784 111.83 19.3179 111.83 20.9174Z" fill="url(#paint8_linear)"/>
<path d="M105.801 12.1403C104.064 12.1394 102.366 12.6538 100.922 13.6184C99.4776 14.583 98.3517 15.9544 97.6867 17.5593C97.0217 19.1641 96.8475 20.9302 97.186 22.6341C97.5246 24.338 98.3608 25.9032 99.5887 27.1316C100.817 28.36 102.381 29.1965 104.085 29.5352C105.788 29.8739 107.553 29.6996 109.158 29.0343C110.762 28.3691 112.133 27.2428 113.097 25.798C114.061 24.3531 114.575 22.6546 114.575 20.9174C114.575 18.5896 113.65 16.3571 112.005 14.7111C110.359 13.065 108.128 12.1403 105.801 12.1403ZM100.941 23.3343C100.465 23.3352 100 23.195 99.6045 22.9313C99.2087 22.6676 98.9001 22.2923 98.7177 21.853C98.5353 21.4137 98.4874 20.9302 98.5799 20.4636C98.6725 19.9971 98.9013 19.5685 99.2376 19.2321C99.5738 18.8958 100.002 18.6668 100.469 18.5742C100.935 18.4816 101.418 18.5296 101.858 18.7121C102.297 18.8945 102.672 19.2033 102.935 19.5991C103.199 19.995 103.339 20.4603 103.338 20.9359C103.338 21.5712 103.086 22.1806 102.638 22.6302C102.189 23.0799 101.58 23.3331 100.945 23.3343H100.941ZM105.801 13.6573C106.276 13.6573 106.741 13.7983 107.136 14.0626C107.531 14.3268 107.839 14.7024 108.02 15.1418C108.202 15.5811 108.249 16.0646 108.156 16.5308C108.063 16.9971 107.834 17.4253 107.498 17.7611C107.161 18.097 106.733 18.3255 106.266 18.4177C105.8 18.5099 105.317 18.4617 104.878 18.2791C104.439 18.0965 104.065 17.7878 103.801 17.392C103.538 16.9962 103.398 16.5311 103.399 16.0557C103.4 15.4191 103.653 14.8091 104.104 14.3595C104.554 13.9098 105.164 13.6573 105.801 13.6573ZM105.829 28.1821C105.353 28.1821 104.889 28.0412 104.494 27.7771C104.099 27.5131 103.791 27.1378 103.609 26.6987C103.427 26.2596 103.38 25.7764 103.473 25.3103C103.565 24.8441 103.794 24.416 104.13 24.0799C104.466 23.7438 104.894 23.515 105.36 23.4222C105.826 23.3295 106.309 23.3771 106.748 23.559C107.187 23.7409 107.562 24.0489 107.826 24.444C108.09 24.8392 108.231 25.3038 108.231 25.7791C108.231 26.0972 108.169 26.4122 108.046 26.7059C107.924 26.9996 107.745 27.266 107.519 27.4896C107.293 27.7132 107.024 27.8896 106.729 28.0085C106.434 28.1274 106.119 28.1864 105.801 28.1821H105.829ZM110.675 23.3018C110.2 23.3018 109.737 23.1612 109.343 22.8976C108.948 22.6341 108.641 22.2595 108.46 21.8213C108.278 21.383 108.231 20.9008 108.323 20.4356C108.416 19.9703 108.644 19.543 108.979 19.2075C109.315 18.8721 109.742 18.6437 110.207 18.5512C110.672 18.4586 111.154 18.5061 111.592 18.6876C112.03 18.8692 112.405 19.1766 112.668 19.571C112.931 19.9654 113.072 20.4291 113.072 20.9035C113.072 21.2192 113.01 21.5318 112.889 21.8234C112.768 22.115 112.59 22.3798 112.367 22.6027C112.143 22.8255 111.878 23.002 111.586 23.1219C111.294 23.2419 110.981 23.3031 110.665 23.3018H110.675Z" fill="url(#paint9_linear)"/>
<path d="M94.268 23.5005C94.8507 21.0214 93.314 18.5392 90.8358 17.9563C88.3576 17.3735 85.8763 18.9107 85.2937 21.3898C84.7111 23.8689 86.2477 26.3511 88.7259 26.934C91.2041 27.5168 93.6854 25.9796 94.268 23.5005Z" fill="url(#paint10_linear)"/>
<path d="M89.7787 15.1882C88.3442 15.1882 86.942 15.6137 85.7493 16.4109C84.5565 17.2082 83.6269 18.3413 83.078 19.6671C82.529 20.9928 82.3854 22.4517 82.6652 23.8591C82.9451 25.2665 83.6359 26.5593 84.6502 27.574C85.6645 28.5887 86.9568 29.2797 88.3637 29.5597C89.7706 29.8396 91.2289 29.6959 92.5542 29.1468C93.8795 28.5976 95.0122 27.6677 95.8092 26.4745C96.6061 25.2814 97.0315 23.8786 97.0315 22.4436C97.0315 20.5194 96.2673 18.6739 94.9072 17.3132C93.547 15.9526 91.7022 15.1882 89.7787 15.1882ZM85.7628 24.4384C85.3698 24.4393 84.9854 24.3235 84.6583 24.1057C84.3312 23.8879 84.0761 23.5779 83.9253 23.2149C83.7745 22.8519 83.7348 22.4523 83.8112 22.0667C83.8877 21.6811 84.0768 21.3269 84.3547 21.0489C84.6325 20.771 84.9866 20.5818 85.372 20.5053C85.7575 20.4289 86.1569 20.4686 86.5198 20.6194C86.8827 20.7703 87.1926 21.0255 87.4103 21.3527C87.6281 21.6799 87.7438 22.0644 87.7429 22.4575C87.7417 22.9825 87.5326 23.4856 87.1616 23.8569C86.7905 24.2281 86.2875 24.4372 85.7628 24.4384ZM89.7648 16.4407C90.1573 16.4407 90.5411 16.5572 90.8675 16.7753C91.1939 16.9935 91.4482 17.3036 91.5985 17.6664C91.7487 18.0292 91.788 18.4284 91.7114 18.8136C91.6348 19.1987 91.4458 19.5525 91.1682 19.8302C90.8906 20.1079 90.537 20.297 90.152 20.3736C89.767 20.4502 89.3679 20.4109 89.0052 20.2606C88.6425 20.1103 88.3326 19.8558 88.1145 19.5293C87.8964 19.2028 87.78 18.8189 87.78 18.4262C87.78 17.8996 87.9891 17.3946 88.3613 17.0223C88.7335 16.6499 89.2384 16.4407 89.7648 16.4407ZM89.788 28.4465C89.3954 28.4465 89.0117 28.3301 88.6853 28.1119C88.3589 27.8937 88.1045 27.5836 87.9543 27.2208C87.804 26.858 87.7647 26.4588 87.8413 26.0737C87.9179 25.6885 88.1069 25.3347 88.3845 25.0571C88.6621 24.7794 89.0157 24.5903 89.4007 24.5137C89.7858 24.4371 90.1848 24.4764 90.5475 24.6266C90.9102 24.7769 91.2201 25.0314 91.4382 25.3579C91.6563 25.6844 91.7727 26.0683 91.7727 26.461C91.7727 26.9876 91.5636 27.4926 91.1914 27.865C90.8192 28.2373 90.3144 28.4465 89.788 28.4465ZM93.7946 24.4152C93.4019 24.4161 93.0177 24.3005 92.6907 24.0828C92.3637 23.8652 92.1086 23.5555 91.9576 23.1927C91.8067 22.83 91.7667 22.4307 91.8428 22.0452C91.9188 21.6597 92.1075 21.3055 92.3849 21.0274C92.6623 20.7492 93.0159 20.5597 93.4011 20.4827C93.7862 20.4057 94.1855 20.4447 94.5484 20.5949C94.9114 20.745 95.2216 20.9995 95.4399 21.3261C95.6582 21.6527 95.7748 22.0368 95.7748 22.4297C95.7748 22.9555 95.5663 23.4598 95.1951 23.832C94.8238 24.2042 94.3202 24.414 93.7946 24.4152Z" fill="url(#paint11_linear)"/>
<path d="M97.0315 34.1433H87.0381V47.2485H97.0315V34.1433Z" fill="url(#paint12_linear)"/>
<path d="M110.8 36.9035H100.807V44.4837H110.8V36.9035Z" fill="url(#paint13_linear)"/>
<path d="M94.1195 179.665H82.5586V252.874H94.1195V179.665Z" fill="url(#paint14_linear)"/>
<path d="M156.482 179.665H144.921V252.874H156.482V179.665Z" fill="url(#paint15_linear)"/>
<path d="M159.993 186.007H79.0386V235.839H159.993V186.007Z" fill="#4C3865"/>
<path d="M172.514 260.825C172.512 262.934 171.674 264.957 170.183 266.448C168.691 267.939 166.669 268.776 164.561 268.776H74.4711C72.3639 268.775 70.3433 267.937 68.8537 266.446C67.3641 264.955 66.5273 262.933 66.5273 260.825C66.5273 258.717 67.3641 256.695 68.8537 255.204C70.3433 253.713 72.3639 252.875 74.4711 252.874H164.561C166.669 252.874 168.691 253.711 170.183 255.202C171.674 256.693 172.512 258.716 172.514 260.825Z" fill="#4C3865"/>
<path d="M160.141 351.982H144.713L78.895 268.776H94.3234L160.141 351.982Z" fill="url(#paint16_linear)"/>
<path d="M78.895 351.982H94.3234L160.141 268.776H144.713L78.895 351.982Z" fill="url(#paint17_linear)"/>
<path d="M119.518 196.741L124.123 206.08L134.422 207.573L126.97 214.852L128.732 225.109L119.518 220.266L110.304 225.109L112.066 214.852L104.609 207.573L114.913 206.08L119.518 196.741Z" fill="white"/>
<path d="M171.475 220.173H159.993V230.319V235.487L174.818 257.476H186.3V242.162L171.475 220.173Z" fill="url(#paint18_linear)"/>
<path d="M186.3 242.167H174.818V257.48H186.3V242.167Z" fill="url(#paint19_linear)"/>
<path d="M67.4127 220.173H78.8948V230.319V235.487L64.0692 257.476H52.5918V242.162L67.4127 220.173Z" fill="url(#paint20_linear)"/>
<path d="M64.0692 242.167H52.5918V257.48H64.0692V242.167Z" fill="url(#paint21_linear)"/>
<path d="M215.826 338.088L216.795 355.475L233.861 358.542L236.68 355.452C236.68 355.452 236.462 334.293 237.334 324.115L215.826 338.088Z" fill="#FBA99A"/>
<path d="M255.758 341.976C257.78 358.537 261.615 363.64 261.615 363.64L274.456 368.39L284.635 364.363C284.635 364.363 269.128 333.041 267.041 323.039C267.06 323.048 255.091 336.502 255.758 341.976Z" fill="#FCAFA2"/>
<path d="M200.147 255.523C202.554 297.214 209.658 306.89 213.572 349.843C213.572 349.843 226.156 352.003 238.496 350.82C238.496 350.82 237.649 302.187 246.326 257.879C252.141 228.189 254.548 192.891 252.47 176.928C247.277 137.065 204.97 169.042 204.97 169.042C204.97 169.042 198.803 232.309 200.147 255.523Z" fill="url(#paint22_linear)"/>
<path d="M222.017 252.442C224.428 294.133 235.678 308.356 250.225 351.945L265.376 353.752L280.526 351.945C280.526 351.945 264.587 307.326 265.376 255.053C265.839 224.811 272.341 189.419 270.263 173.456C265.069 133.592 218.521 165.743 218.521 165.743C218.521 165.743 220.672 229.229 222.017 252.442Z" fill="url(#paint23_linear)"/>
<path d="M236.68 355.452C236.68 355.452 237.566 363.631 238.758 373.493C239.685 381.305 227.879 377.937 219.197 378.35C210.85 378.754 186.759 379.185 184.102 379.774C184.102 379.774 183.277 372.742 199.146 365.997C202.127 364.752 205.216 363.783 208.374 363.102C211.806 362.332 217.356 360.318 216.795 355.475C223.367 356.71 230.112 356.702 236.68 355.452Z" fill="url(#paint24_linear)"/>
<path d="M286.429 385.81C299.469 384.497 295.996 377.631 293.849 374.124C292.356 371.341 285.761 363.64 283.35 361.705L284.393 363.839C283.081 364.698 280.962 365.797 276.974 366.91C271.539 368.427 264.833 362.494 259.816 359.975C259.537 359.428 259.658 359.353 259.384 358.825C257.78 360.569 258.717 367.36 259.278 369.624C260.669 375.27 264.782 377.112 266.303 378.387C269.498 380.869 276.102 387.174 286.429 385.81Z" fill="url(#paint25_linear)"/>
<path d="M202.819 171.013C204.929 158.9 203.363 131.234 200.742 119.636C199.982 116.268 188.222 81.1648 186.246 50.7281C186.246 50.7281 183.802 36.862 233.547 38.2027C233.547 38.2027 238.082 41.7794 239.993 42.8974C241.903 44.0154 267.446 54.2955 270.386 66.1436C273.326 77.9917 274.339 88.8265 275.15 103.096C276.541 127.79 274.438 158.567 277.105 186.202C277.105 186.202 272.185 184.068 257.953 182.407C243.721 180.746 221.508 184.295 218.763 187.38C218.763 187.38 220.753 177.369 218.809 175.472C218.809 175.472 215.072 184.778 215.072 186.202C215.072 187.626 195.903 192.686 193.534 190.557C196.199 189.079 197.155 186.697 198.909 184.205C200.664 181.713 202.326 174.021 202.819 171.013Z" fill="url(#paint26_linear)"/>
<path d="M198.878 96.6684C198.878 96.6684 189.604 101.73 187.809 103.836C186.014 105.942 173.373 114.557 167.465 120.216C167.465 120.216 126.935 142.511 151.698 90.5264C151.698 90.5264 188.009 60.7113 192.651 56.9119C197.292 53.1126 204.04 82.0091 198.878 96.6684Z" fill="url(#paint27_linear)"/>
<path d="M261.724 125.658L261.622 126.043C260.467 130.436 259.702 133.999 257.912 135.919C253.497 140.646 244.306 137.942 241.009 135.455C232.893 129.369 227.63 125.463 215.188 104.142C202.746 82.8209 206.804 82.5519 201.55 81.1416C201.55 81.1416 190.629 76.8644 186.246 67.2245C181.864 57.5846 185.319 56.5547 185.319 56.5547C185.319 56.5547 233.329 108.257 243.397 116.357C243.541 116.477 269.547 67.8461 269.547 67.8461C280.862 71.1955 267.975 102.115 261.724 125.658Z" fill="#E6D0DB"/>
<path d="M269.764 64.3483C269.764 64.3483 251.456 57.7145 243.795 81.587C243.795 81.587 240.002 95.6154 237.767 99.4333C237.767 99.4333 222.19 118.337 245.91 130.751C245.91 130.751 255.319 141.825 261.524 118.194C267.729 94.5623 281.154 67.7209 269.764 64.3483Z" fill="url(#paint28_linear)"/>
<path d="M178.191 114.144C178.191 114.144 167.525 122.03 159.057 124.479C159.057 124.479 150.757 88.8378 153.289 85.0477C155.821 81.2576 167.599 73.9465 167.599 73.9465C167.599 73.9465 178.715 100.751 178.191 114.144Z" fill="#DCE5EC"/>
<path d="M236.265 100.106C236.265 100.106 255.041 99.3127 253.766 116.259C253.766 116.259 252.092 129.531 248.438 133.679C248.438 133.679 256.233 134.323 259.257 127.402C262.28 120.481 268.392 92.1454 238.889 96.0468L236.265 100.106Z" fill="#DCE5EC"/>
<path d="M237.614 71.3207C237.614 71.3207 242.071 52.0456 240.499 43.1665C240.499 43.1665 242.548 56.281 238.412 72.8331C238.412 72.8331 229.898 73.7887 225.84 71.163C225.84 71.163 218.995 70.8893 216.691 73.4825C216.691 73.4825 214.993 69.3074 212.545 68.5234L211.529 65.8235C211.529 65.8235 216.858 70.2584 216.774 71.8542C216.774 71.8542 227.44 70.1749 228.228 66.1621C228.228 66.1853 232.685 70.5275 237.614 71.3207Z" fill="#E6D0DB"/>
<path d="M233.821 45.0499C233.821 45.0499 227.881 65.5405 214.061 68.1338C214.061 68.1338 209.577 63.3463 209.971 56.9119C210.365 50.4776 233.821 45.0499 233.821 45.0499Z" fill="#EA9788"/>
<path d="M232.248 49.3466C232.248 49.3466 227.443 58.8159 213.624 61.4091C213.624 61.4091 209.577 63.3463 209.971 56.9119C210.885 49.8949 232.248 49.3466 232.248 49.3466Z" fill="#CE7B6C"/>
<path d="M210.579 93.8201C210.579 93.8201 212.846 104.893 215.925 114.065C219.005 123.236 217.743 135.469 217.743 135.469C217.743 135.469 218.995 122.819 218.003 115.647C217.011 108.475 214.265 109.004 210.579 93.8201Z" fill="#E6D0DB"/>
<path d="M218.388 151.738C218.388 151.738 219.983 171.649 218.81 175.476C218.819 175.476 221.75 165.122 218.388 151.738Z" fill="#E6D0DB"/>
<path d="M185.675 66.9181C182.493 74.1967 176.664 90.4751 174.925 94.9146C172.857 100.189 165.753 119.747 159.061 123.213C154.697 125.481 147.361 125.426 146.202 124.372C145.042 123.319 139.77 120.049 142.195 109.927C144.62 99.8042 149.364 90.6282 158.11 80.297C166.856 69.9659 176.66 60.8131 177.689 58.2848C178.64 55.9328 175.004 42.8971 175.027 39.3715C175.06 35.6602 178.38 28.7388 180.3 26.7301C182.619 24.3039 195.603 24.7353 196.206 25.2502C196.809 25.7652 189.097 39.8586 186.143 40.9673C186.143 40.9673 182.688 42.2801 185.007 51.8783C185.007 51.8783 187.506 50.7232 189.25 47.0027C190.994 43.2822 196.118 43.0409 185.675 66.9181Z" fill="url(#paint29_linear)"/>
<path d="M202.874 28.3915C204.788 30.3053 209.088 34.6026 205.619 38.068C202.151 41.5334 197.863 37.2361 195.946 35.3224C195.027 34.4033 194.511 33.1567 194.511 31.8569C194.511 30.5572 195.027 29.3106 195.946 28.3915C196.865 27.4724 198.111 26.9561 199.41 26.9561C200.71 26.9561 201.956 27.4724 202.874 28.3915Z" fill="url(#paint30_linear)"/>
<path d="M234.38 28.3915C232.462 30.3053 228.167 34.6026 231.631 38.068C235.095 41.5334 239.386 37.2361 241.308 35.3224C242.227 34.4033 242.743 33.1567 242.743 31.8569C242.743 30.5572 242.227 29.3106 241.308 28.3915C240.389 27.4724 239.143 26.9561 237.844 26.9561C236.544 26.9561 235.298 27.4724 234.38 28.3915Z" fill="url(#paint31_linear)"/>
<path d="M238.37 21.0167C238.37 31.9345 236.547 56.4641 218.606 56.4641C200.664 56.4641 198.838 31.9345 198.838 21.0167C198.799 18.3955 199.282 15.7927 200.258 13.3598C201.234 10.9269 202.683 8.71238 204.523 6.84507C206.362 4.97775 208.554 3.4949 210.971 2.48277C213.389 1.47063 215.983 0.949402 218.604 0.949402C221.224 0.949402 223.819 1.47063 226.236 2.48277C228.653 3.4949 230.845 4.97775 232.685 6.84507C234.524 8.71238 235.974 10.9269 236.95 13.3598C237.926 15.7927 238.408 18.3955 238.37 21.0167Z" fill="url(#paint32_linear)"/>
<path d="M210.604 29.538C211.67 29.538 212.534 28.6735 212.534 27.607C212.534 26.5406 211.67 25.6761 210.604 25.6761C209.538 25.6761 208.674 26.5406 208.674 27.607C208.674 28.6735 209.538 29.538 210.604 29.538Z" fill="#493764"/>
<path d="M226.378 29.538C227.444 29.538 228.308 28.6735 228.308 27.607C228.308 26.5406 227.444 25.6761 226.378 25.6761C225.312 25.6761 224.448 26.5406 224.448 27.607C224.448 28.6735 225.312 29.538 226.378 29.538Z" fill="#493764"/>
<path d="M226.771 27.5036C226.63 27.5494 226.486 27.584 226.34 27.607C226.486 27.6288 226.63 27.6619 226.771 27.7062L227.835 28.0941C227.889 28.1092 227.94 28.1373 227.981 28.176C228.007 28.2062 228.022 28.2441 228.024 28.2837V28.8225L224.982 27.7536V27.4519L228.024 26.3786V26.9217C228.023 26.9616 228.008 26.9998 227.981 27.0295C227.94 27.0697 227.89 27.0993 227.835 27.1157L226.771 27.5036Z" fill="#493764"/>
<path d="M216.206 22.1675C216.206 22.1675 211.363 20.521 206.567 21.7882C206.567 21.7882 205.085 22.0943 205.275 24.6545C206.013 24.0933 206.893 23.7513 207.817 23.6675C210.506 23.7095 213.189 23.9197 215.852 24.2968C216.081 24.4218 216.852 23.4347 216.206 22.1675Z" fill="#493764"/>
<path d="M221.022 22.1675C221.022 22.1675 225.87 20.521 230.661 21.7882C230.661 21.7882 232.147 22.0943 231.953 24.6545C231.217 24.0931 230.338 23.7509 229.416 23.6675C226.722 23.709 224.034 23.9192 221.367 24.2968C221.147 24.4218 220.38 23.4347 221.022 22.1675Z" fill="#493764"/>
<path d="M220.592 35.6629C220.592 35.6629 218.257 36.956 216.085 35.6629C216.098 35.6629 218.265 38.8956 220.592 35.6629Z" fill="#493764"/>
<path d="M236.965 32.0466C236.965 32.0466 233.423 11.1807 228.033 13.0816C224.698 14.2669 222.97 14.9608 218.614 14.9608C214.112 14.9608 212.078 14.2195 208.704 12.9652C203.469 11.0514 200.341 32.3224 200.341 32.3224C198.144 28.6674 197.954 20.6633 197.954 20.6633C197.954 15.183 200.13 9.92724 204.004 6.05213C207.878 2.17702 213.132 0 218.61 0C224.088 0 229.342 2.17702 233.216 6.05213C237.089 9.92724 239.266 15.183 239.266 20.6633C239.209 23.6003 238.774 26.5179 237.973 29.3441C237.703 30.2683 237.366 31.1715 236.965 32.0466Z" fill="#473765"/>
<path d="M213.069 45.6324L228.024 41.9731C228.024 41.9731 224.638 56.1322 213.069 45.6324Z" fill="#CA537D"/>
<path d="M221.567 47.9351H202.577C202.213 47.9278 201.866 47.778 201.611 47.5178C201.357 47.2576 201.214 46.9077 201.214 46.5434V34.4819C201.214 34.1176 201.357 33.7678 201.611 33.5075C201.866 33.2473 202.213 33.0975 202.577 33.0902H221.567C221.931 33.0975 222.278 33.2473 222.533 33.5075C222.788 33.7678 222.931 34.1176 222.93 34.4819V46.5434C222.931 46.9077 222.788 47.2576 222.533 47.5178C222.278 47.778 221.931 47.9278 221.567 47.9351ZM202.577 33.6237C202.35 33.6237 202.131 33.7141 201.971 33.8751C201.81 34.036 201.719 34.2543 201.719 34.4819V46.5434C201.719 46.771 201.81 46.9893 201.971 47.1503C202.131 47.3112 202.35 47.4016 202.577 47.4016H221.567C221.794 47.4004 222.011 47.3094 222.171 47.1486C222.331 46.9878 222.42 46.7702 222.42 46.5434V34.4819C222.42 34.2551 222.331 34.0375 222.171 33.8767C222.011 33.7159 221.794 33.6249 221.567 33.6237H202.577Z" fill="#B5B6BA"/>
<path d="M221.456 33.3686H202.679C202.008 33.3686 201.464 33.9127 201.464 34.584V46.4599C201.464 47.1312 202.008 47.6753 202.679 47.6753H221.456C222.127 47.6753 222.671 47.1312 222.671 46.4599V34.584C222.671 33.9127 222.127 33.3686 221.456 33.3686Z" fill="url(#paint33_linear)"/>
<path d="M199.679 58.0853H185.243C185.04 58.0853 184.84 58.0452 184.652 57.9671C184.465 57.8891 184.295 57.7747 184.153 57.6307C184.01 57.4866 183.897 57.3157 183.821 57.1278C183.745 56.9399 183.706 56.7387 183.708 56.5359V30.7429C183.708 30.3368 183.869 29.9475 184.156 29.6604C184.443 29.3733 184.833 29.212 185.238 29.212H199.674C200.08 29.212 200.47 29.3733 200.757 29.6604C201.043 29.9475 201.205 30.3368 201.205 30.7429V56.5359C201.207 56.7379 201.169 56.9383 201.093 57.1256C201.017 57.3129 200.905 57.4834 200.763 57.6274C200.622 57.7713 200.453 57.8859 200.267 57.9644C200.081 58.043 199.881 58.0841 199.679 58.0853ZM185.243 29.8846C185.015 29.8846 184.797 29.9751 184.636 30.136C184.475 30.2969 184.385 30.5152 184.385 30.7429V56.5359C184.385 56.7635 184.475 56.9818 184.636 57.1427C184.797 57.3037 185.015 57.3941 185.243 57.3941H199.679C199.907 57.3941 200.125 57.3037 200.286 57.1427C200.447 56.9818 200.537 56.7635 200.537 56.5359V30.7429C200.537 30.5152 200.447 30.2969 200.286 30.136C200.125 29.9751 199.907 29.8846 199.679 29.8846H185.243Z" fill="url(#paint34_linear)"/>
<path d="M199.512 29.546H185.406C184.655 29.546 184.047 30.1545 184.047 30.9052V56.3874C184.047 57.1381 184.655 57.7467 185.406 57.7467H199.512C200.263 57.7467 200.871 57.1381 200.871 56.3874V30.9052C200.871 30.1545 200.263 29.546 199.512 29.546Z" fill="url(#paint35_linear)"/>
<path d="M190.854 52.7736H184.399C183.843 52.7736 183.393 53.2233 183.393 53.778C183.393 54.3327 183.843 54.7823 184.399 54.7823H190.854C191.41 54.7823 191.86 54.3327 191.86 53.778C191.86 53.2233 191.41 52.7736 190.854 52.7736Z" fill="url(#paint36_linear)"/>
<path d="M190.859 52.9499H184.39C183.934 52.9499 183.564 53.3196 183.564 53.7756C183.564 54.2317 183.934 54.6014 184.39 54.6014H190.859C191.315 54.6014 191.684 54.2317 191.684 53.7756C191.684 53.3196 191.315 52.9499 190.859 52.9499Z" fill="url(#paint37_linear)"/>
<path d="M192.459 50.1108C197.576 50.1108 201.724 45.961 201.724 40.842C201.724 35.723 197.576 31.5732 192.459 31.5732C187.342 31.5732 183.193 35.723 183.193 40.842C183.193 45.961 187.342 50.1108 192.459 50.1108Z" fill="url(#paint38_linear)"/>
<path d="M192.459 49.7768C197.392 49.7768 201.39 45.7766 201.39 40.842C201.39 35.9075 197.392 31.9073 192.459 31.9073C187.526 31.9073 183.527 35.9075 183.527 40.842C183.527 45.7766 187.526 49.7768 192.459 49.7768Z" fill="#535456"/>
<path d="M192.459 49.2572C197.105 49.2572 200.871 45.4896 200.871 40.842C200.871 36.1944 197.105 32.4268 192.459 32.4268C187.813 32.4268 184.047 36.1944 184.047 40.842C184.047 45.4896 187.813 49.2572 192.459 49.2572Z" fill="#67686A"/>
<path d="M186.101 31.9769C186.647 31.9769 187.089 31.5345 187.089 30.9888C187.089 30.443 186.647 30.0006 186.101 30.0006C185.556 30.0006 185.113 30.443 185.113 30.9888C185.113 31.5345 185.556 31.9769 186.101 31.9769Z" fill="#E7E5E6"/>
<path d="M186.101 31.7727C186.534 31.7727 186.885 31.4217 186.885 30.9887C186.885 30.5557 186.534 30.2047 186.101 30.2047C185.668 30.2047 185.317 30.5557 185.317 30.9887C185.317 31.4217 185.668 31.7727 186.101 31.7727Z" fill="#BF1E2E"/>
<path d="M192.464 33.132C190.939 33.132 189.449 33.5841 188.182 34.4313C186.914 35.2785 185.926 36.4827 185.343 37.8915C184.76 39.3003 184.607 40.8506 184.904 42.3462C185.202 43.8418 185.936 45.2156 187.014 46.2939C188.092 47.3721 189.465 48.1065 190.96 48.404C192.455 48.7015 194.005 48.5488 195.413 47.9652C196.821 47.3816 198.025 46.3934 198.872 45.1255C199.719 43.8576 200.171 42.3669 200.171 40.842C200.17 38.7976 199.357 36.8372 197.912 35.3915C196.467 33.9459 194.507 33.1332 192.464 33.132ZM192.464 47.4295C191.161 47.4304 189.887 47.0448 188.804 46.3215C187.72 45.5983 186.876 44.5698 186.377 43.3661C185.877 42.1625 185.746 40.8379 186 39.5597C186.253 38.2816 186.88 37.1074 187.801 36.1857C188.722 35.2639 189.895 34.6361 191.173 34.3815C192.45 34.127 193.774 34.2571 194.978 34.7556C196.181 35.254 197.21 36.0984 197.934 37.1818C198.658 38.2652 199.044 39.539 199.044 40.842C199.044 42.5883 198.351 44.2632 197.117 45.4984C195.883 46.7337 194.209 47.4282 192.464 47.4295Z" fill="#333335"/>
<path d="M192.458 46.8496C195.775 46.8496 198.464 44.1599 198.464 40.842C198.464 37.5241 195.775 34.8345 192.458 34.8345C189.142 34.8345 186.453 37.5241 186.453 40.842C186.453 44.1599 189.142 46.8496 192.458 46.8496Z" fill="#333335"/>
<path d="M195.617 37.9983H189.305C188.809 37.9983 188.406 38.4013 188.406 38.8983V42.7904C188.406 43.2875 188.809 43.6904 189.305 43.6904H195.617C196.114 43.6904 196.516 43.2875 196.516 42.7904V38.8983C196.516 38.4013 196.114 37.9983 195.617 37.9983Z" fill="#0A0A0A"/>
<path d="M195.496 38.0957H189.431C188.941 38.0957 188.545 38.4924 188.545 38.9818V42.7069C188.545 43.1963 188.941 43.593 189.431 43.593H195.496C195.985 43.593 196.382 43.1963 196.382 42.7069V38.9818C196.382 38.4924 195.985 38.0957 195.496 38.0957Z" fill="#1C1C1C"/>
<path d="M192.459 42.526C193.388 42.526 194.142 41.7721 194.142 40.842C194.142 39.912 193.388 39.1581 192.459 39.1581C191.529 39.1581 190.775 39.912 190.775 40.842C190.775 41.7721 191.529 42.526 192.459 42.526Z" fill="#A1A2A6"/>
<path d="M192.459 41.793C192.984 41.793 193.41 41.3672 193.41 40.842C193.41 40.3168 192.984 39.891 192.459 39.891C191.934 39.891 191.508 40.3168 191.508 40.842C191.508 41.3672 191.934 41.793 192.459 41.793Z" fill="#0A0A0A"/>
<path d="M193.984 40.9348C194.642 40.9348 195.176 40.401 195.176 39.7426C195.176 39.0841 194.642 38.5503 193.984 38.5503C193.326 38.5503 192.792 39.0841 192.792 39.7426C192.792 40.401 193.326 40.9348 193.984 40.9348Z" fill="#D8D9DB"/>
<path d="M182.781 54.4855C182.781 54.4855 190.664 57.3849 202.749 57.0462C203.538 57.0243 204.32 57.193 205.03 57.5379C205.03 57.5379 201.659 52.3422 201.232 47.8702C201.232 47.8702 201.284 44.5626 204.989 45.4579C204.989 45.4579 206.844 49.9021 208.43 52.3515C210.016 54.8009 213.916 59.259 214.041 66.649C214.041 66.649 213.786 68.8386 217.101 72.8607C220.417 76.8827 235.025 97.1553 248.515 102.411C248.515 102.411 256.932 106.721 258.202 122.865C259.473 139.009 243.771 132.607 241.818 131.215C241.818 131.215 228.44 121.223 215.993 99.9016C203.547 78.5806 204.27 80.4687 199.02 79.0538C199.02 79.0538 188.095 74.7812 183.717 65.1367C179.34 55.4921 182.781 54.4855 182.781 54.4855Z" fill="url(#paint39_linear)"/>
</g>
<defs>
<linearGradient id="paint0_linear" x1="436.42" y1="189.913" x2="310.442" y2="187.549" gradientUnits="userSpaceOnUse">
<stop stop-color="#F86998"/>
<stop offset="0.65" stop-color="#FA9199"/>
<stop offset="1" stop-color="#FBA99A"/>
</linearGradient>
<linearGradient id="paint1_linear" x1="19700.2" y1="-2981.79" x2="21038.3" y2="-3703.83" gradientUnits="userSpaceOnUse">
<stop stop-color="#F86998"/>
<stop offset="0.65" stop-color="#FA9199"/>
<stop offset="1" stop-color="#FBA99A"/>
</linearGradient>
<linearGradient id="paint2_linear" x1="12187.1" y1="4446.98" x2="13524.8" y2="3725.13" gradientUnits="userSpaceOnUse">
<stop stop-color="#F86998"/>
<stop offset="0.65" stop-color="#FA9199"/>
<stop offset="1" stop-color="#FBA99A"/>
</linearGradient>
<linearGradient id="paint3_linear" x1="13268.8" y1="4791.4" x2="13762.1" y2="4791.4" gradientUnits="userSpaceOnUse">
<stop stop-color="#F86998"/>
<stop offset="0.65" stop-color="#FA9199"/>
<stop offset="1" stop-color="#FBA99A"/>
</linearGradient>
<linearGradient id="paint4_linear" x1="-975.508" y1="4821.21" x2="-546.495" y2="5064.84" gradientUnits="userSpaceOnUse">
<stop stop-color="#F86998"/>
<stop offset="0.65" stop-color="#FA9199"/>
<stop offset="1" stop-color="#FBA99A"/>
</linearGradient>
<linearGradient id="paint5_linear" x1="349.129" y1="9656.97" x2="2571.71" y2="9656.97" gradientUnits="userSpaceOnUse">
<stop stop-color="#F86998"/>
<stop offset="0.65" stop-color="#FA9199"/>
<stop offset="1" stop-color="#FBA99A"/>
</linearGradient>
<linearGradient id="paint6_linear" x1="113.693" y1="40.2993" x2="121.503" y2="40.2993" gradientUnits="userSpaceOnUse">
<stop stop-color="#C4CCD7"/>
<stop offset="0.85" stop-color="#ECF0F3"/>
<stop offset="1" stop-color="#F4F7F9"/>
</linearGradient>
<linearGradient id="paint7_linear" x1="73.9097" y1="66.4959" x2="100.325" y2="38.4347" gradientUnits="userSpaceOnUse">
<stop stop-color="#004A7D"/>
<stop offset="0.83" stop-color="#0967A5"/>
<stop offset="1" stop-color="#0B6EAE"/>
</linearGradient>
<linearGradient id="paint8_linear" x1="4418.62" y1="2313.2" x2="4394.01" y2="1669.6" gradientUnits="userSpaceOnUse">
<stop stop-color="#004A7D"/>
<stop offset="0.83" stop-color="#0967A5"/>
<stop offset="1" stop-color="#0B6EAE"/>
</linearGradient>
<linearGradient id="paint9_linear" x1="6015.3" y1="2352.11" x2="6679.65" y2="2352.11" gradientUnits="userSpaceOnUse">
<stop stop-color="#C4CCD7"/>
<stop offset="0.85" stop-color="#ECF0F3"/>
<stop offset="1" stop-color="#F4F7F9"/>
</linearGradient>
<linearGradient id="paint10_linear" x1="3053.97" y1="1810.58" x2="3049.27" y2="1344.29" gradientUnits="userSpaceOnUse">
<stop stop-color="#004A7D"/>
<stop offset="0.83" stop-color="#0967A5"/>
<stop offset="1" stop-color="#0B6EAE"/>
</linearGradient>
<linearGradient id="paint11_linear" x1="4518.48" y1="1996.07" x2="4972.22" y2="1996.07" gradientUnits="userSpaceOnUse">
<stop stop-color="#C4CCD7"/>
<stop offset="0.85" stop-color="#ECF0F3"/>
<stop offset="1" stop-color="#F4F7F9"/>
</linearGradient>
<linearGradient id="paint12_linear" x1="1962.71" y1="1183.74" x2="2177.97" y2="1183.74" gradientUnits="userSpaceOnUse">
<stop stop-color="#C4CCD7"/>
<stop offset="0.85" stop-color="#ECF0F3"/>
<stop offset="1" stop-color="#F4F7F9"/>
</linearGradient>
<linearGradient id="paint13_linear" x1="2273.18" y1="701.837" x2="2488.54" y2="701.837" gradientUnits="userSpaceOnUse">
<stop stop-color="#C4CCD7"/>
<stop offset="0.85" stop-color="#ECF0F3"/>
<stop offset="1" stop-color="#F4F7F9"/>
</linearGradient>
<linearGradient id="paint14_linear" x1="2180.17" y1="42309.7" x2="3923.41" y2="38982.6" gradientUnits="userSpaceOnUse">
<stop stop-color="#F86998"/>
<stop offset="0.65" stop-color="#FA9199"/>
<stop offset="1" stop-color="#FBA99A"/>
</linearGradient>
<linearGradient id="paint15_linear" x1="3858.85" y1="44027.9" x2="5082.24" y2="37136.8" gradientUnits="userSpaceOnUse">
<stop stop-color="#F86998"/>
<stop offset="0.65" stop-color="#FA9199"/>
<stop offset="1" stop-color="#FBA99A"/>
</linearGradient>
<linearGradient id="paint16_linear" x1="13901.3" y1="55938.4" x2="28135.6" y2="55938.4" gradientUnits="userSpaceOnUse">
<stop stop-color="#F86998"/>
<stop offset="0.65" stop-color="#FA9199"/>
<stop offset="1" stop-color="#FBA99A"/>
</linearGradient>
<linearGradient id="paint17_linear" x1="13901.3" y1="55938.4" x2="28135.6" y2="55938.4" gradientUnits="userSpaceOnUse">
<stop stop-color="#F86998"/>
<stop offset="0.65" stop-color="#FA9199"/>
<stop offset="1" stop-color="#FBA99A"/>
</linearGradient>
<linearGradient id="paint18_linear" x1="8904.65" y1="20660.5" x2="10659.7" y2="19659.1" gradientUnits="userSpaceOnUse">
<stop stop-color="#F86998"/>
<stop offset="0.65" stop-color="#FA9199"/>
<stop offset="1" stop-color="#FBA99A"/>
</linearGradient>
<linearGradient id="paint19_linear" x1="4658.22" y1="8069.18" x2="4720.64" y2="6909.43" gradientUnits="userSpaceOnUse">
<stop stop-color="#F86998"/>
<stop offset="0.65" stop-color="#FA9199"/>
<stop offset="1" stop-color="#FBA99A"/>
</linearGradient>
<linearGradient id="paint20_linear" x1="4808.43" y1="20470.6" x2="3349.88" y2="19731.7" gradientUnits="userSpaceOnUse">
<stop stop-color="#F86998"/>
<stop offset="0.65" stop-color="#FA9199"/>
<stop offset="1" stop-color="#FBA99A"/>
</linearGradient>
<linearGradient id="paint21_linear" x1="1530.77" y1="8113.13" x2="1716.4" y2="6976.8" gradientUnits="userSpaceOnUse">
<stop stop-color="#F86998"/>
<stop offset="0.65" stop-color="#FA9199"/>
<stop offset="1" stop-color="#FBA99A"/>
</linearGradient>
<linearGradient id="paint22_linear" x1="20886.8" y1="184645" x2="76126.4" y2="163696" gradientUnits="userSpaceOnUse">
<stop stop-color="#004A7D"/>
<stop offset="0.83" stop-color="#0967A5"/>
<stop offset="1" stop-color="#0B6EAE"/>
</linearGradient>
<linearGradient id="paint23_linear" x1="62465.3" y1="173225" x2="29014.7" y2="164005" gradientUnits="userSpaceOnUse">
<stop stop-color="#004A7D"/>
<stop offset="0.83" stop-color="#0967A5"/>
<stop offset="1" stop-color="#0B6EAE"/>
</linearGradient>
<linearGradient id="paint24_linear" x1="32095.2" y1="24025.1" x2="32103.5" y2="21752" gradientUnits="userSpaceOnUse">
<stop stop-color="#C4CCD7"/>
<stop offset="0.85" stop-color="#ECF0F3"/>
<stop offset="1" stop-color="#F4F7F9"/>
</linearGradient>
<linearGradient id="paint25_linear" x1="26926.3" y1="26178.2" x2="27234.9" y2="24200.8" gradientUnits="userSpaceOnUse">
<stop stop-color="#C4CCD7"/>
<stop offset="0.85" stop-color="#ECF0F3"/>
<stop offset="1" stop-color="#F4F7F9"/>
</linearGradient>
<linearGradient id="paint26_linear" x1="37571" y1="85821.3" x2="59521.6" y2="72696.8" gradientUnits="userSpaceOnUse">
<stop stop-color="#ECF0F3"/>
<stop offset="1" stop-color="#F4F7F9"/>
</linearGradient>
<linearGradient id="paint27_linear" x1="32183" y1="31281" x2="27427.8" y2="20749.3" gradientUnits="userSpaceOnUse">
<stop stop-color="#C4CCD7"/>
<stop offset="0.85" stop-color="#ECF0F3"/>
<stop offset="1" stop-color="#F4F7F9"/>
</linearGradient>
<linearGradient id="paint28_linear" x1="23020.7" y1="28933.1" x2="30672.7" y2="24913.9" gradientUnits="userSpaceOnUse">
<stop stop-color="#ECF0F3"/>
<stop offset="1" stop-color="#F4F7F9"/>
</linearGradient>
<linearGradient id="paint29_linear" x1="168.902" y1="24.8499" x2="168.902" y2="125.073" gradientUnits="userSpaceOnUse">
<stop stop-color="#FBA99A"/>
<stop offset="1" stop-color="#FFC5C3"/>
</linearGradient>
<linearGradient id="paint30_linear" x1="6623.82" y1="2101.38" x2="8939.21" y2="1983.92" gradientUnits="userSpaceOnUse">
<stop stop-color="#FEC0BC"/>
<stop offset="0.98" stop-color="#FFB7BA"/>
<stop offset="1" stop-color="#FFB6B9"/>
</linearGradient>
<linearGradient id="paint31_linear" x1="7020.92" y1="2117.03" x2="8248.94" y2="2073.68" gradientUnits="userSpaceOnUse">
<stop stop-color="#FBAB9E"/>
<stop offset="0.98" stop-color="#FFB7BA"/>
<stop offset="1" stop-color="#FFB6B9"/>
</linearGradient>
<linearGradient id="paint32_linear" x1="232.632" y1="49.838" x2="202.339" y2="17.0942" gradientUnits="userSpaceOnUse">
<stop stop-color="#FBA99A"/>
<stop offset="1" stop-color="#FFC5C3"/>
</linearGradient>
<linearGradient id="paint33_linear" x1="197.69" y1="52.9824" x2="224.729" y2="29.579" gradientUnits="userSpaceOnUse">
<stop stop-color="#B2B3B7"/>
<stop offset="0.41" stop-color="#D9DBDB"/>
<stop offset="0.52" stop-color="#E5E7E6"/>
<stop offset="1" stop-color="#B5B6BA"/>
</linearGradient>
<linearGradient id="paint34_linear" x1="193.173" y1="69.6179" x2="191.753" y2="17.9763" gradientUnits="userSpaceOnUse">
<stop stop-color="#B2B3B7"/>
<stop offset="0.5" stop-color="#D9DBDB"/>
<stop offset="0.62" stop-color="#E3E5E4"/>
<stop offset="1" stop-color="#B6B7BA"/>
</linearGradient>
<linearGradient id="paint35_linear" x1="6732.36" y1="3651.08" x2="8032.97" y2="2618.78" gradientUnits="userSpaceOnUse">
<stop stop-color="#B2B3B7"/>
<stop offset="0.5" stop-color="#D9DBDB"/>
<stop offset="0.62" stop-color="#E3E5E4"/>
<stop offset="1" stop-color="#B6B7BA"/>
</linearGradient>
<linearGradient id="paint36_linear" x1="3532.16" y1="285.621" x2="3686.78" y2="285.621" gradientUnits="userSpaceOnUse">
<stop stop-color="#B2B3B7"/>
<stop offset="0.5" stop-color="#D9DBDB"/>
<stop offset="0.62" stop-color="#E3E5E4"/>
<stop offset="1" stop-color="#B6B7BA"/>
</linearGradient>
<linearGradient id="paint37_linear" x1="3469.48" y1="220.181" x2="3469.45" y2="244.442" gradientUnits="userSpaceOnUse">
<stop stop-color="#B2B3B7"/>
<stop offset="0.5" stop-color="#D9DBDB"/>
<stop offset="0.62" stop-color="#E3E5E4"/>
<stop offset="1" stop-color="#B6B7BA"/>
</linearGradient>
<linearGradient id="paint38_linear" x1="8052.48" y1="1912.21" x2="7638.3" y2="1336.02" gradientUnits="userSpaceOnUse">
<stop stop-color="#B2B3B7"/>
<stop offset="0.5" stop-color="#D9DBDB"/>
<stop offset="0.62" stop-color="#E3E5E4"/>
<stop offset="1" stop-color="#B6B7BA"/>
</linearGradient>
<linearGradient id="paint39_linear" x1="229.509" y1="89.9205" x2="198.23" y2="-12.0451" gradientUnits="userSpaceOnUse">
<stop stop-color="#FBA99A"/>
<stop offset="1" stop-color="#FFC5C3"/>
</linearGradient>
<clipPath id="clip0">
<rect width="390" height="386" fill="white"/>
</clipPath>
</defs>
</svg>
