<svg width="60" height="60" viewBox="0 0 60 60" fill="none" xmlns="http://www.w3.org/2000/svg">
<path fill-rule="evenodd" clip-rule="evenodd" d="M30 -2.62268e-06C13.4315 -4.07115e-06 4.07115e-06 13.4315 2.62268e-06 30C1.17422e-06 46.5685 13.4315 60 30 60C46.5685 60 60 46.5685 60 30C60 13.4315 46.5685 -1.17422e-06 30 -2.62268e-06ZM36.075 28.75L21.25 28.75C20.9185 28.75 20.6005 28.8817 20.3661 29.1161C20.1317 29.3505 20 29.6685 20 30C20 30.3315 20.1317 30.6494 20.3661 30.8839C20.6005 31.1183 20.9185 31.25 21.25 31.25L36.075 31.25L31.5375 36.7C31.4322 36.8263 31.3529 36.9721 31.3041 37.1291C31.2553 37.2861 31.238 37.4512 31.2531 37.6149C31.2682 37.7787 31.3154 37.9378 31.3921 38.0832C31.4688 38.2287 31.5734 38.3575 31.7 38.4625C31.9249 38.6488 32.2079 38.7505 32.5 38.75C32.6836 38.7503 32.8651 38.7101 33.0314 38.6323C33.1978 38.5546 33.345 38.4411 33.4625 38.3L39.7125 30.8C39.7545 30.7403 39.7922 30.6777 39.825 30.6125C39.9125 30.55 39.9125 30.5125 39.9125 30.45C39.9692 30.3067 39.9988 30.1541 40 30C39.9988 29.8459 39.9692 29.6933 39.9125 29.55C39.825 29.4875 39.825 29.45 39.825 29.3875C39.7922 29.3223 39.7545 29.2596 39.7125 29.2L33.4625 21.7C33.2503 21.4447 32.9454 21.2842 32.6149 21.2537C32.2844 21.2232 31.9553 21.3253 31.7 21.5375C31.4447 21.7496 31.2842 22.0545 31.2537 22.3851C31.2233 22.7156 31.3253 23.0447 31.5375 23.3L36.075 28.75Z" fill="#1E538F"/>
</svg>
