<svg width="100" height="100" viewBox="0 0 100 100" fill="none" xmlns="http://www.w3.org/2000/svg">
<circle cx="50" cy="50" r="50" fill="#5495C7"/>
<path d="M63.1859 34.9985H44.4635C43.9777 34.9985 43.584 35.3923 43.584 35.878C43.584 36.3638 43.9777 36.7575 44.4635 36.7575H63.1857C63.6715 36.7575 64.0654 36.3638 64.0654 35.878C64.0654 35.3922 63.6716 34.9985 63.1859 34.9985Z" fill="white"/>
<path d="M40.3709 34.9985H37.4054C36.9196 34.9985 36.5259 35.3923 36.5259 35.878C36.5259 36.3638 36.9195 36.7575 37.4054 36.7575H40.3709C40.8567 36.7575 41.2504 36.3638 41.2504 35.878C41.2504 35.3923 40.8567 34.9985 40.3709 34.9985Z" fill="white"/>
<path d="M46.6045 61.9568H37.4054C36.9196 61.9568 36.5259 62.3505 36.5259 62.8363C36.5259 63.3221 36.9196 63.7158 37.4054 63.7158H46.6045C47.0902 63.7158 47.484 63.322 47.484 62.8363C47.484 62.3504 47.0902 61.9568 46.6045 61.9568Z" fill="white"/>
<path d="M50.2956 52.9707H37.4054C36.9196 52.9707 36.5259 53.3645 36.5259 53.8502C36.5259 54.3361 36.9196 54.7297 37.4054 54.7297H50.2956C50.7812 54.7297 51.1751 54.3359 51.1751 53.8502C51.1751 53.3643 50.7813 52.9707 50.2956 52.9707Z" fill="white"/>
<path d="M56.5701 43.9844H37.4054C36.9196 43.9844 36.5259 44.3781 36.5259 44.8639C36.5259 45.3496 36.9196 45.7434 37.4054 45.7434H56.5701C57.0559 45.7435 57.4496 45.3497 57.4496 44.8639C57.4496 44.378 57.0559 43.9844 56.5701 43.9844Z" fill="white"/>
<path d="M73.2147 26H36.8666C33.6469 26 31.0277 28.6194 31.0277 31.839V66.445H21.8794C21.6447 66.445 21.4196 66.5389 21.2545 66.7056C21.0892 66.8725 20.9976 67.0984 21 67.3332C21.0347 70.8254 23.5443 73.4587 26.8375 73.4587H63.1856H63.2964C66.516 73.4587 69.1353 70.8393 69.1353 67.6197V56.9623C69.1353 56.4765 68.7414 56.0829 68.2557 56.0829C67.7699 56.0829 67.3762 56.4767 67.3762 56.9624V67.6198C67.3762 69.8696 65.5459 71.6997 63.2964 71.6997H63.1856C60.8854 71.6997 59.132 69.815 59.1072 67.3158C59.1024 66.8335 58.71 66.445 58.2277 66.445H32.7871V31.8389C32.7871 29.5891 34.6174 27.759 36.8669 27.759H69.0417C69.016 27.7854 68.9916 27.813 68.9663 27.84C68.9356 27.8727 68.9045 27.905 68.8745 27.9383C68.8428 27.9736 68.8122 28.0098 68.7814 28.0459C68.7517 28.0804 68.7218 28.1147 68.693 28.1499C68.6631 28.1865 68.6345 28.224 68.6055 28.2613C68.5773 28.2973 68.549 28.3331 68.5217 28.3699C68.4938 28.4076 68.4671 28.4462 68.44 28.4846C68.4134 28.5223 68.3864 28.5598 68.3607 28.5982C68.3348 28.637 68.31 28.6766 68.2851 28.7161C68.2601 28.7553 68.2348 28.7942 68.2108 28.8341C68.1866 28.8741 68.1639 28.915 68.1408 28.9557C68.1177 28.9961 68.094 29.0363 68.0719 29.0775C68.0496 29.1186 68.029 29.1607 68.0078 29.2025C67.9866 29.2442 67.9648 29.2856 67.9446 29.3278C67.9244 29.3702 67.9057 29.4134 67.8864 29.4563C67.8672 29.4991 67.8474 29.5415 67.8292 29.5848C67.8108 29.6285 67.7942 29.673 67.7768 29.7172C67.7597 29.7608 67.742 29.804 67.726 29.8481C67.7094 29.8933 67.6948 29.9394 67.6794 29.9852C67.6647 30.0293 67.6491 30.0729 67.6353 30.1174C67.6207 30.1643 67.6082 30.212 67.5948 30.2594C67.5824 30.3037 67.569 30.3477 67.5576 30.3924C67.545 30.4416 67.5345 30.4916 67.5231 30.5413C67.5131 30.585 67.5021 30.6284 67.4932 30.6725C67.4827 30.7242 67.4744 30.7765 67.4652 30.8286C67.4577 30.8717 67.4491 30.9144 67.4425 30.9577C67.434 31.0134 67.428 31.0698 67.421 31.1259C67.4161 31.1665 67.4099 31.2065 67.4058 31.2473C67.3995 31.3101 67.3956 31.3736 67.3913 31.437C67.3889 31.4718 67.3852 31.5064 67.3834 31.5413C67.3785 31.6399 67.3759 31.7392 67.3759 31.839V32.1342V39.6451C67.3759 40.131 67.7697 40.5246 68.2554 40.5246C68.7412 40.5246 69.1349 40.1308 69.1349 39.6451V33.0137H78.1822C78.4169 33.0137 78.642 32.9198 78.8071 32.7531C78.9724 32.5862 79.064 32.3602 79.0615 32.1255C79.0268 28.6333 76.5173 26 73.2147 26ZM57.4095 68.2041C57.4215 68.2952 57.4356 68.3853 57.4512 68.4748C57.4563 68.5048 57.4627 68.5342 57.4683 68.5641C57.4794 68.6233 57.4906 68.6825 57.5032 68.7408C57.5107 68.7759 57.5193 68.8103 57.5272 68.845C57.5394 68.8976 57.5517 68.9502 57.5652 69.0022C57.5746 69.0386 57.5848 69.0747 57.5947 69.1108C57.6084 69.1602 57.6223 69.2096 57.637 69.2584C57.6481 69.2951 57.6597 69.3316 57.6714 69.3679C57.6866 69.4155 57.7024 69.4628 57.7187 69.5098C57.7313 69.546 57.744 69.5821 57.7573 69.618C57.7744 69.6646 57.7921 69.7108 57.8102 69.7567C57.8241 69.7916 57.8378 69.8266 57.8521 69.8611C57.8714 69.9077 57.8916 69.9536 57.9118 69.9995C57.9264 70.0325 57.9408 70.0655 57.9559 70.0981C57.9782 70.1461 58.0016 70.1935 58.0249 70.2407C58.0395 70.27 58.0534 70.2995 58.0684 70.3286C58.097 70.384 58.1269 70.4385 58.157 70.4929C58.1679 70.5127 58.1783 70.5329 58.1895 70.5524C58.2313 70.626 58.2745 70.6984 58.3192 70.7697C58.3296 70.7863 58.3408 70.8023 58.3513 70.8188C58.3861 70.8733 58.4214 70.9274 58.4578 70.9805C58.4747 71.005 58.4923 71.0288 58.5094 71.0531C58.5408 71.0974 58.5722 71.1415 58.6048 71.1848C58.6243 71.2108 58.6444 71.2361 58.6643 71.2618C58.6957 71.3022 58.7274 71.3425 58.7597 71.3819C58.781 71.4078 58.8027 71.4333 58.8244 71.4589C58.8567 71.4971 58.8895 71.5348 58.9228 71.5721C58.9452 71.5972 58.9679 71.6219 58.9908 71.6465C59.0071 71.6641 59.0228 71.6824 59.0393 71.6997H26.8374C24.819 71.6997 23.2216 70.2483 22.8436 68.2041H57.4095ZM69.1783 31.2545C69.1786 31.2485 69.1792 31.2423 69.18 31.2362C69.184 31.2093 69.1889 31.1827 69.1935 31.1561C69.1998 31.1186 69.2063 31.0811 69.2137 31.0439C69.2193 31.0155 69.2256 30.9874 69.2318 30.9593C69.2396 30.9243 69.2474 30.8895 69.256 30.855C69.2632 30.8259 69.271 30.797 69.2788 30.7681C69.2878 30.7352 69.2971 30.7023 69.3068 30.6697C69.3156 30.6402 69.3249 30.6109 69.3344 30.5817C69.3444 30.5505 69.355 30.5196 69.3659 30.4886C69.3764 30.4588 69.3871 30.4289 69.3983 30.3993C69.4094 30.3702 69.421 30.3413 69.4327 30.3124C69.445 30.2819 69.4573 30.2516 69.4704 30.2215C69.482 30.1946 69.4943 30.1681 69.5065 30.1416C69.5209 30.1104 69.5352 30.0788 69.5503 30.048C69.5616 30.025 69.5737 30.0025 69.5854 29.9798C69.6027 29.9461 69.6198 29.9123 69.6381 29.8791C69.6451 29.8663 69.6529 29.8538 69.66 29.8411C69.7412 29.6973 69.8304 29.5585 69.9279 29.4262C69.9289 29.4249 69.9297 29.4238 69.9306 29.4225C69.962 29.38 69.9945 29.3384 70.0274 29.2972C70.0327 29.2906 70.0377 29.284 70.043 29.2774C70.0752 29.2375 70.1085 29.1985 70.1421 29.16C70.1483 29.1528 70.1546 29.1456 70.1609 29.1384C70.1951 29.0997 70.2301 29.0619 70.2659 29.0245C70.2717 29.0184 70.2775 29.0122 70.2835 29.0061C70.3205 28.9679 70.3582 28.9303 70.3967 28.8935C70.401 28.8894 70.4053 28.8853 70.4097 28.8811C70.4502 28.8426 70.4915 28.8049 70.5337 28.7681C70.5351 28.7668 70.5366 28.7656 70.538 28.7643C71.0766 28.2952 71.7394 27.9644 72.4709 27.8282C72.4712 27.8281 72.4717 27.8281 72.4721 27.828C72.5319 27.8169 72.5924 27.807 72.6532 27.7986C72.6569 27.7981 72.6605 27.7977 72.6641 27.7972C72.7221 27.7892 72.7805 27.7824 72.8392 27.7769C72.8481 27.7761 72.8571 27.7756 72.8662 27.7749C72.92 27.7702 72.9739 27.7663 73.0282 27.7637C73.0596 27.7623 73.0913 27.762 73.1229 27.7612C73.1569 27.7604 73.1908 27.7589 73.225 27.7589C75.2434 27.7589 76.8408 29.2102 77.2188 31.2545H69.1783Z" fill="white"/>
<path d="M80.9994 42.2095C80.9992 42.1993 80.999 42.1891 80.9987 42.1788C80.9951 42.0961 80.9803 42.0164 80.9553 41.9409C80.9541 41.9372 80.9537 41.9333 80.9524 41.9297C80.9513 41.9266 80.9496 41.9238 80.9485 41.9208C80.9347 41.8822 80.9187 41.8447 80.9 41.8088C80.8976 41.8044 80.8949 41.8003 80.8926 41.7958C80.8753 41.7642 80.856 41.7338 80.8351 41.7047C80.8306 41.6984 80.8264 41.692 80.8218 41.6859C80.7987 41.6554 80.7737 41.6266 80.7468 41.5994C80.741 41.5934 80.7347 41.5879 80.7288 41.5822C80.7035 41.5578 80.6767 41.535 80.6486 41.5138C80.6449 41.5109 80.6413 41.5078 80.6375 41.505C80.6058 41.482 80.5723 41.4615 80.5378 41.4427C80.5311 41.4391 80.5244 41.4358 80.5176 41.4324C80.4823 41.4146 80.4462 41.3983 80.4084 41.3853C80.4081 41.3852 80.4079 41.3851 80.4077 41.3851C80.3701 41.3722 80.331 41.3625 80.2913 41.3546C80.2825 41.3529 80.2737 41.3513 80.2648 41.3499C80.2251 41.3434 80.1848 41.3384 80.1434 41.3374C72.7843 41.147 63.1882 42.9185 58.3368 48.4568C56.2136 50.8806 55.2339 53.9556 54.2865 56.9292C54.2089 57.1726 54.1315 57.4159 54.0533 57.6588C54.05 57.669 54.0469 57.6793 54.0439 57.6898L52.5575 62.969C52.4259 63.4364 52.6983 63.9223 53.1657 64.054C53.2454 64.0765 53.3257 64.087 53.4046 64.087C53.7886 64.087 54.1416 63.8334 54.2508 63.4456L55.6294 58.5492C57.3147 57.7594 58.6717 57.39 60.5047 56.8916C61.4556 56.6328 62.5334 56.3399 63.8376 55.9387C66.6571 55.0716 72.066 51.4434 74.5553 48.7496C76.7324 46.3935 78.5644 44.6424 80.6808 42.8948C80.6833 42.8928 80.6852 42.8904 80.6876 42.8883C80.7185 42.8621 80.7478 42.8343 80.7747 42.8042C80.7764 42.8024 80.7781 42.8007 80.7797 42.799C80.8064 42.7688 80.8305 42.7365 80.8529 42.7027C80.857 42.6965 80.861 42.6903 80.8649 42.684C80.9071 42.6168 80.9404 42.5438 80.9634 42.466C80.9656 42.4586 80.9677 42.4514 80.9697 42.4439C80.9799 42.4057 80.9883 42.3668 80.9934 42.3267C80.9936 42.325 80.9936 42.3235 80.9937 42.3219C80.997 42.2947 80.9994 42.2672 81.0001 42.2393C81.0004 42.2292 80.9995 42.2193 80.9994 42.2095ZM59.6601 49.6158C61.7072 47.2787 64.8449 45.517 68.9861 44.3798C70.099 44.0742 71.2751 43.8206 72.4872 43.6204C69.4074 45.114 66.4626 46.9847 64.8169 48.084C62.1611 49.8582 59.2942 52.0104 57.1771 53.9245C57.8036 52.3376 58.5609 50.8705 59.6601 49.6158ZM73.2634 47.5557C70.8407 50.1776 65.6081 53.5537 63.3205 54.2572C62.0439 54.6498 60.981 54.939 60.0431 55.194C59.1946 55.4248 58.4227 55.635 57.6593 55.8773C58.0008 55.5503 58.4011 55.1836 58.873 54.7719C60.7722 53.1153 63.2301 51.2597 65.794 49.5469C70.2333 46.5812 74.2507 44.4995 77.1981 43.597C75.9181 44.7759 74.659 46.0453 73.2634 47.5557Z" fill="white"/>
</svg>
