<svg width="38" height="38" viewBox="0 0 38 38" fill="none" xmlns="http://www.w3.org/2000/svg">
<path d="M18.7078 10.3422C21.4709 10.3422 21.7867 10.3422 22.892 10.4211C23.9183 10.5001 24.4709 10.658 24.7867 10.7369C25.2604 10.8948 25.5762 11.1316 25.9709 11.5264C26.3657 11.9211 26.5236 12.2369 26.7604 12.7106C26.9183 13.1053 27.0762 13.579 27.0762 14.6053C27.1551 15.7106 27.1551 16.0264 27.1551 18.7895C27.1551 21.5527 27.1551 21.8685 27.0762 22.9737C26.9972 24.0001 26.8393 24.5527 26.7604 24.8685C26.6025 25.3422 26.3657 25.658 25.9709 26.0527C25.5762 26.4474 25.2604 26.6053 24.7867 26.8422C24.392 27.0001 23.9183 27.1579 22.892 27.1579C21.7867 27.2369 21.4709 27.2369 18.7078 27.2369C15.9446 27.2369 15.6288 27.2369 14.5236 27.1579C13.4972 27.079 12.9446 26.9211 12.6288 26.8422C12.1551 26.6843 11.8393 26.4474 11.4446 26.0527C11.0499 25.658 10.892 25.3422 10.6551 24.8685C10.4972 24.4737 10.3393 24.0001 10.3393 22.9737C10.2604 21.8685 10.2604 21.5527 10.2604 18.7895C10.2604 16.0264 10.2604 15.7106 10.3393 14.6053C10.4183 13.579 10.5762 13.0264 10.6551 12.7106C10.813 12.2369 11.0499 11.9211 11.4446 11.5264C11.8393 11.1316 12.1551 10.9737 12.6288 10.7369C13.0236 10.579 13.4972 10.4211 14.5236 10.4211C15.6288 10.3422 15.9446 10.3422 18.7078 10.3422ZM18.7078 8.52637C15.9446 8.52637 15.5499 8.52637 14.4446 8.60532C13.3393 8.68427 12.6288 8.84217 11.9183 9.07901C11.2078 9.31585 10.6551 9.71059 10.1025 10.2632C9.54988 10.8159 9.15514 11.3685 8.9183 12.079C8.68145 12.7106 8.52356 13.5001 8.44461 14.6053C8.36566 15.7106 8.36566 16.0264 8.36566 18.8685C8.36566 21.6316 8.36566 22.0264 8.44461 23.1316C8.52356 24.2369 8.68145 24.9474 8.9183 25.658C9.15514 26.3685 9.54988 26.9211 10.1025 27.4737C10.6551 28.0264 11.2078 28.4211 11.9183 28.6579C12.5499 28.8948 13.3393 29.0527 14.4446 29.1316C15.5499 29.2106 15.8657 29.2106 18.7078 29.2106C21.4709 29.2106 21.8657 29.2106 22.9709 29.1316C24.0762 29.0527 24.7867 28.8948 25.4972 28.6579C26.2078 28.4211 26.7604 28.0264 27.313 27.4737C27.8657 26.9211 28.2604 26.3685 28.4972 25.658C28.7341 25.0264 28.892 24.2369 28.9709 23.1316C29.0499 22.0264 29.0499 21.7106 29.0499 18.8685C29.0499 16.1053 29.0499 15.7106 28.9709 14.6053C28.892 13.5001 28.7341 12.7895 28.4972 12.079C28.2604 11.3685 27.8657 10.8159 27.313 10.2632C26.7604 9.71059 26.2078 9.31585 25.4972 9.07901C24.8657 8.84217 24.0762 8.68427 22.9709 8.60532C21.8657 8.52637 21.4709 8.52637 18.7078 8.52637Z" fill="#C4C4C4"/>
<path d="M18.7093 13.4995C15.7882 13.4995 13.4198 15.8679 13.4198 18.789C13.4198 21.71 15.7882 24.0785 18.7093 24.0785C21.6303 24.0785 23.9987 21.71 23.9987 18.789C23.9987 15.8679 21.6303 13.4995 18.7093 13.4995ZM18.7093 22.1837C16.8145 22.1837 15.3145 20.6837 15.3145 18.789C15.3145 16.8942 16.8145 15.3942 18.7093 15.3942C20.604 15.3942 22.104 16.8942 22.104 18.789C22.104 20.6837 20.604 22.1837 18.7093 22.1837Z" fill="#C4C4C4"/>
<path d="M25.4215 13.2627C25.4215 13.9732 24.8688 14.5258 24.1583 14.5258C23.4478 14.5258 22.8951 13.9732 22.8951 13.2627C22.8951 12.5521 23.4478 11.9995 24.1583 11.9995C24.8688 12.0785 25.4215 12.6311 25.4215 13.2627Z" fill="#C4C4C4"/>
</svg>
