<svg width="38" height="38" viewBox="0 0 38 38" fill="none" xmlns="http://www.w3.org/2000/svg">
<path d="M14.1309 14.606H10.2625V27.1586H14.1309V14.606Z" fill="#C4C4C4"/>
<path d="M12.1611 12.9447C13.4243 12.9447 14.4506 11.9183 14.4506 10.6552C14.4506 9.39203 13.4243 8.36572 12.1611 8.36572C10.898 8.36572 9.87164 9.39203 9.87164 10.6552C9.87164 11.9183 10.898 12.9447 12.1611 12.9447Z" fill="#C4C4C4"/>
<path d="M20.3672 20.5272C20.3672 18.7904 21.1566 17.6851 22.7356 17.6851C24.1566 17.6851 24.8672 18.7114 24.8672 20.5272C24.8672 22.343 24.8672 27.0799 24.8672 27.0799H28.7356C28.7356 27.0799 28.7356 22.5009 28.7356 19.1851C28.7356 15.8693 26.8409 14.2114 24.1566 14.2114C21.4724 14.2114 20.3672 16.2641 20.3672 16.2641V14.6062H16.6566V27.1588H20.3672C20.3672 27.1588 20.3672 22.5009 20.3672 20.5272Z" fill="#C4C4C4"/>
</svg>
