<svg width="38" height="38" viewBox="0 0 38 38" fill="none" xmlns="http://www.w3.org/2000/svg">
<path fill-rule="evenodd" clip-rule="evenodd" d="M29.5522 18.2362C29.3943 12.7889 24.9732 8.44678 19.4469 8.44678C13.9995 8.44678 9.57851 12.7099 9.34167 17.9994C9.34167 18.1573 9.34167 18.3152 9.34167 18.4731C9.34167 20.3678 9.89429 22.1047 10.7627 23.6047L8.94693 28.9731L14.5522 27.2362C15.9732 28.0257 17.6311 28.4994 19.4469 28.4994C25.0522 28.4994 29.5522 23.9994 29.5522 18.4731C29.5522 18.3941 29.5522 18.3152 29.5522 18.2362ZM19.4469 26.9205C17.7101 26.9205 16.1311 26.4468 14.789 25.4994L11.5522 26.5257L12.5785 23.3678C11.5522 21.9468 10.9996 20.2889 10.9996 18.4731C10.9996 18.2362 10.9996 17.9204 11.0785 17.6836C11.4733 13.4204 15.1048 10.1047 19.5259 10.1047C23.9469 10.1047 27.6575 13.4994 27.9732 17.8415C27.9732 18.0784 27.9732 18.3152 27.9732 18.4731C27.8943 23.131 24.1048 26.9205 19.4469 26.9205Z" fill="#C4C4C4"/>
<path fill-rule="evenodd" clip-rule="evenodd" d="M24.1051 20.5263C23.8683 20.3684 22.6051 19.8158 22.4472 19.7368C22.2104 19.6579 22.0524 19.5789 21.8946 19.8947C21.7367 20.1316 21.263 20.6842 21.1051 20.8421C20.9472 21 20.7893 21 20.5525 20.921C20.3156 20.7631 19.5261 20.5263 18.5788 19.7368C17.8683 19.1052 17.3156 18.3158 17.2367 18.0789C17.0788 17.8421 17.2367 17.6842 17.3156 17.6052C17.3946 17.5263 17.5525 17.2894 17.7104 17.2105C17.7104 17.1315 17.7893 17.1316 17.7893 17.1316C17.8683 17.0526 17.8682 16.9736 17.9472 16.8158C18.0261 16.6579 18.0261 16.5 17.9472 16.421C17.8682 16.2631 17.3946 15.0789 17.1577 14.6052C16.9209 14.1316 16.763 14.2105 16.6051 14.2105C16.4472 14.2105 16.2893 14.2105 16.1314 14.2105C15.9735 14.2105 15.6577 14.2894 15.4998 14.5263C15.263 14.7631 14.6314 15.3947 14.6314 16.5789C14.6314 16.8947 14.7103 17.1316 14.7893 17.4473C15.0261 18.3158 15.5788 19.0263 15.6577 19.1842C15.8156 19.3421 17.3945 21.8684 19.8419 22.8947C22.3682 23.8421 22.3682 23.5263 22.8419 23.5263C23.3156 23.5263 24.3419 22.9736 24.4998 22.3421C24.7367 21.7894 24.7367 21.3158 24.6577 21.1579C24.4998 20.6842 24.3419 20.6842 24.1051 20.5263Z" fill="#C4C4C4"/>
</svg>
