<?xml version="1.0" encoding="utf-8"?>
<!-- Generator: Adobe Illustrator 24.2.2, SVG Export Plug-In . SVG Version: 6.00 Build 0)  -->
<svg version="1.1" id="Layer_1" xmlns="http://www.w3.org/2000/svg" xmlns:xlink="http://www.w3.org/1999/xlink" x="0px" y="0px"
	 viewBox="0 0 492 469" style="enable-background:new 0 0 492 469;" xml:space="preserve">
<style type="text/css">
	.st0{fill:url(#SVGID_1_);}
	.st1{fill-rule:evenodd;clip-rule:evenodd;fill:#C4C4C4;filter:url(#Adobe_OpacityMaskFilter);}
	.st2{mask:url(#mask0_1_);}
	.st3{fill:none;}
	.st4{fill:none;stroke:#B28EFF;stroke-width:2;}
	.st5{fill:none;stroke:#B28EFF;stroke-width:3;}
	.st6{fill:#B28EFF;}
	.st7{fill:url(#SVGID_2_);}
	.st8{fill:url(#SVGID_3_);}
	.st9{opacity:0.2;}
	.st10{fill:url(#SVGID_4_);}
	.st11{fill:url(#SVGID_5_);}
	.st12{fill:#FFFFFF;}
	.st13{fill:url(#SVGID_6_);}
	.st14{fill:#F9F7FF;}
	.st15{fill:url(#SVGID_7_);}
</style>
<linearGradient id="SVGID_1_" gradientUnits="userSpaceOnUse" x1="207.5029" y1="245.9447" x2="80.2166" y2="26.5615">
	<stop  offset="0" style="stop-color:#D4B9F3"/>
	<stop  offset="1" style="stop-color:#D2F8FE"/>
</linearGradient>
<path class="st0" d="M392.2,0c-19.4,13.7-39,30.8-59,52.4c-32.3,35-65.4,81.8-99.2,145.1C155.3,344.9,73.8,417.6,0,452.6V0H392.2z"
	/>
<defs>
	<filter id="Adobe_OpacityMaskFilter" filterUnits="userSpaceOnUse" x="0" y="52.4" width="468.3" height="415.9">
		<feColorMatrix  type="matrix" values="1 0 0 0 0  0 1 0 0 0  0 0 1 0 0  0 0 0 1 0"/>
	</filter>
</defs>
<mask maskUnits="userSpaceOnUse" x="0" y="52.4" width="468.3" height="415.9" id="mask0_1_">
	<path class="st1" d="M120.1,193.9c9.7-6,16.1-16.7,16.1-28.9c0-18.8-15.2-34-34-34c-18.8,0-34,15.2-34,34s15.2,34,34,34
		c1.5,0,3-0.1,4.5-0.3c0.1,0.2,0.2,0.3,0.4,0.4l8.8,5.9c0.6,0.4,1.3,0.1,1.5-0.6l2.7-10.2C120.1,194.2,120.1,194,120.1,193.9z
		 M122.6,289.7c0,20-16.2,36.3-36.3,36.3c-20,0-36.3-16.2-36.3-36.3c0-20,16.2-36.3,36.3-36.3C106.3,253.4,122.6,269.7,122.6,289.7z
		 M209.6,141.2c0.7-2.7,3.5-4.3,6.1-3.5l69.4,18.5c4.7-6.1,12.1-10,20.4-10c14.2,0,25.7,11.5,25.7,25.7c0,12.3-8.7,22.7-20.3,25.1
		l-11,41.1c-0.7,2.7-3.5,4.3-6.1,3.5L195,215.3c-2.7-0.7-4.3-3.5-3.5-6.1L209.6,141.2z"/>
</mask>
<g class="st2">
	<rect y="52.4" class="st3" width="468.3" height="415.9"/>
</g>
<circle class="st4" cx="159" cy="227.8" r="5"/>
<circle class="st5" cx="203" cy="294" r="10.5"/>
<circle class="st4" cx="282.7" cy="125.5" r="3.5"/>
<circle class="st4" cx="34.8" cy="164.8" r="5"/>
<circle class="st4" cx="158.8" cy="137.6" r="5"/>
<circle class="st6" cx="23" cy="300" r="6"/>
<circle class="st6" cx="337.2" cy="207.2" r="6"/>
<circle class="st6" cx="139" cy="68" r="6"/>
<g>
	
		<linearGradient id="SVGID_2_" gradientUnits="userSpaceOnUse" x1="135.4522" y1="172.328" x2="239.9984" y2="216.0051" gradientTransform="matrix(0.9626 0.271 -0.271 0.9626 126.6075 -60.6424)">
		<stop  offset="0" style="stop-color:#FD8D76"/>
		<stop  offset="0.6278" style="stop-color:#F65872"/>
		<stop  offset="1" style="stop-color:#F23E70"/>
	</linearGradient>
	<path class="st7" d="M292.2,226l-95.5-26.9c-4.5-1.3-7.1-5.9-5.8-10.4l15.5-55.1c1.3-4.5,5.9-7.1,10.4-5.8l95.5,26.9
		c4.5,1.3,7.1,5.9,5.8,10.4l-15.5,55.1C301.3,224.7,296.6,227.3,292.2,226z"/>
	
		<linearGradient id="SVGID_3_" gradientUnits="userSpaceOnUse" x1="138.4593" y1="201.6382" x2="237.855" y2="243.1636" gradientTransform="matrix(0.9626 0.271 -0.271 0.9626 126.6075 -60.6424)">
		<stop  offset="0" style="stop-color:#F8BA95"/>
		<stop  offset="0.4498" style="stop-color:#FAA195"/>
		<stop  offset="1" style="stop-color:#FD8795"/>
	</linearGradient>
	<path class="st8" d="M262.5,180.3l39.9,40.7c-1.2,4.1-5.4,6.5-9.5,5.3L195.9,199c-4.1-1.2-6.5-5.4-5.3-9.5l55.2-13.9
		C251.8,174.4,258,176.1,262.5,180.3z"/>
	<path class="st9" d="M242.9,186l-36.3-53.1c1.2-4.1,3.7-0.3,7.8,0.8l96.9,27.3c4.1,1.2,8.2-0.8,7.1,3.3l-58.7,26.4
		C253.6,191.9,247.4,190.2,242.9,186z"/>
	
		<linearGradient id="SVGID_4_" gradientUnits="userSpaceOnUse" x1="135.8044" y1="147.6972" x2="235.2002" y2="189.2225" gradientTransform="matrix(0.9626 0.271 -0.271 0.9626 126.6075 -60.6424)">
		<stop  offset="0" style="stop-color:#F8BA95"/>
		<stop  offset="0.4498" style="stop-color:#FAA195"/>
		<stop  offset="1" style="stop-color:#FD8795"/>
	</linearGradient>
	<path class="st10" d="M244.6,179.9l-38.1-47c1.2-4.1,5.4-6.5,9.5-5.3l96.9,27.3c4.1,1.2,6.5,5.4,5.3,9.5l-57,20.2
		C255.3,185.8,249.1,184,244.6,179.9z"/>
	
		<linearGradient id="SVGID_5_" gradientUnits="userSpaceOnUse" x1="221.8139" y1="152.4063" x2="260.1787" y2="168.4343" gradientTransform="matrix(0.9626 0.271 -0.271 0.9626 126.6075 -60.6424)">
		<stop  offset="0" style="stop-color:#8CDA9A"/>
		<stop  offset="0.6622" style="stop-color:#4EC4B5"/>
		<stop  offset="1" style="stop-color:#34BBC1"/>
	</linearGradient>
	<circle class="st11" cx="315.1" cy="159.1" r="20.8"/>
	<polygon class="st12" points="325,155.5 311.9,162.8 308.3,156.2 305.9,157.6 309.6,164.1 310.9,166.5 326.4,157.8 	"/>
</g>
<g>
	
		<linearGradient id="SVGID_6_" gradientUnits="userSpaceOnUse" x1="81.6305" y1="416.5085" x2="145.7273" y2="443.2868" gradientTransform="matrix(0.9517 0.3069 -0.3069 0.9517 107.8387 -167.5274)">
		<stop  offset="0" style="stop-color:#AE5BFF"/>
		<stop  offset="0.4077" style="stop-color:#995FFF"/>
		<stop  offset="1" style="stop-color:#7F63FF"/>
	</linearGradient>
	<circle class="st13" cx="84.1" cy="276.5" r="34.7"/>
	<polygon class="st14" points="100.1,282.4 70.6,284.2 77.3,276.4 81,276.1 78.2,273.6 77.5,262.4 	"/>
</g>
<g>
	
		<linearGradient id="SVGID_7_" gradientUnits="userSpaceOnUse" x1="82.4799" y1="236.0862" x2="143.2913" y2="261.4919" gradientTransform="matrix(0.9546 0.2979 -0.2979 0.9546 66.663 -115.0928)">
		<stop  offset="0" style="stop-color:#2EC9FE"/>
		<stop  offset="0.458" style="stop-color:#29ACFA"/>
		<stop  offset="1" style="stop-color:#248EF5"/>
	</linearGradient>
	<path class="st15" d="M130.2,165c5.3-16.9-4.2-34.9-21-40.1c-16.9-5.3-34.9,4.2-40.1,21s4.2,34.9,21,40.1c2.7,0.8,5.4,1.3,8.1,1.4
		l8.4,12.4l3.1-14C119.1,182.8,127,175.3,130.2,165z"/>
	<circle class="st12" cx="91.5" cy="146.5" r="3.4"/>
	<circle class="st12" cx="111.4" cy="152.7" r="3.4"/>
	<path class="st12" d="M109,168.8c-1.4,0.3-7.6,1.2-13.4-0.6c-5.9-1.8-10.4-6.1-11.3-7.1c-0.1-0.1-1.4-1.6-1-2.8l0,0
		c0.4-1.2,1.3-1.9,2.1-1.7c0,0,5,5.3,11.5,7.3c6.4,2,13.7,0.5,13.7,0.5c0.8,0.3,1.2,1.4,0.8,2.6l0,0
		C111.1,168.3,109.2,168.8,109,168.8z"/>
</g>
</svg>
